2024-04-20 22:52:51.67 Server      Microsoft SQL Server 2022 (RTM-CU12-GDR) (KB5036343) - 16.0.4120.1 (X64) 
	Mar 18 2024 12:02:14 
	Copyright (C) 2022 Microsoft Corporation
	Developer Edition (64-bit) on Linux (Ubuntu 22.04.4 LTS) <X64>
2024-04-20 22:52:51.70 Server      UTC adjustment: 0:00
2024-04-20 22:52:51.70 Server      (c) Microsoft Corporation.
2024-04-20 22:52:51.71 Server      All rights reserved.
2024-04-20 22:52:51.71 Server      Server process ID is 448.
2024-04-20 22:52:51.72 Server      Logging SQL Server messages in file '/var/opt/mssql/log/errorlog'.
2024-04-20 22:52:51.73 Server      Registry startup parameters: 
	 -d /var/opt/mssql/data/master.mdf
	 -l /var/opt/mssql/data/mastlog.ldf
	 -e /var/opt/mssql/log/errorlog
2024-04-20 22:52:51.78 Server      SQL Server detected 1 sockets with 5 cores per socket and 5 logical processors per socket, 5 total logical processors; using 5 logical processors based on SQL Server licensing. This is an informational message; no user action is required.
2024-04-20 22:52:51.79 Server      SQL Server is starting at normal priority base (=7). This is an informational message only. No user action is required.
2024-04-20 22:52:51.80 Server      Detected 3947 MB of RAM. This is an informational message; no user action is required.
2024-04-20 22:52:51.81 Server      Using conventional memory in the memory manager.
2024-04-20 22:52:51.82 Server      Detected pause instruction latency: 0 cycles.
2024-04-20 22:52:51.83 Server      SQL Server detected the following NUMA node configuration (NUMA Node number 0, Processor Group number 0, CPU Mask 0x000000000000001f).
2024-04-20 22:52:51.85 Server      Page exclusion bitmap is enabled.
2024-04-20 22:52:52.02 Server      Buffer pool extension is not supported on Linux platform.
2024-04-20 22:52:52.04 Server      Buffer Pool: Allocating 524288 bytes for 454055 hashPages.
2024-04-20 22:52:52.57 Server      Buffer pool extension is already disabled. No action is necessary.
2024-04-20 22:52:53.46 Server      Installing Client TLS certificates to the store.
2024-04-20 22:52:53.49 Server      CPU vectorization level(s) detected:  SSE SSE2 SSE3 SSSE3 SSE41 SSE42 POPCNT
2024-04-20 22:52:53.68 Server      Successfully initialized the TLS configuration. Allowed TLS protocol versions are ['1.0 1.1 1.2']. Allowed TLS ciphers are ['ECDHE-ECDSA-AES128-GCM-SHA256:ECDHE-ECDSA-AES256-GCM-SHA384:ECDHE-RSA-AES128-GCM-SHA256:ECDHE-RSA-AES256-GCM-SHA384:ECDHE-ECDSA-AES128-SHA256:ECDHE-ECDSA-AES256-SHA384:ECDHE-ECDSA-AES256-SHA:ECDHE-ECDSA-AES128-SHA:AES256-GCM-SHA384:AES128-GCM-SHA256:AES256-SHA256:AES128-SHA256:AES256-SHA:AES128-SHA:!DHE-RSA-AES256-GCM-SHA384:!DHE-RSA-AES128-GCM-SHA256:!DHE-RSA-AES256-SHA:!DHE-RSA-AES128-SHA'].
2024-04-20 22:52:53.83 Server      Query Store settings initialized with enabled = 1, 
2024-04-20 22:52:53.89 Server      The maximum number of dedicated administrator connections for this instance is '1'
2024-04-20 22:52:53.91 Server      Node configuration: node 0: CPU mask: 0x000000000000001f:0 Active CPU mask: 0x000000000000001f:0. This message provides a description of the NUMA configuration for this computer. This is an informational message only. No user action is required.
2024-04-20 22:52:53.94 Server      Using dynamic lock allocation.  Initial allocation of 2500 Lock blocks and 5000 Lock Owner blocks per node.  This is an informational message only.  No user action is required.
2024-04-20 22:52:54.06 Server      In-Memory OLTP initialized on lowend machine.
2024-04-20 22:52:54.17 Server      CLR version v4.0.30319 loaded.
2024-04-20 22:52:54.37 Server      [INFO] Created Extended Events session 'hkenginexesession'
2024-04-20 22:52:54.38 Server      Database Instant File Initialization: enabled. For security and performance considerations see the topic 'Database Instant File Initialization' in SQL Server Books Online. This is an informational message only. No user action is required.
2024-04-20 22:52:54.41 Server      Total Log Writer threads: 2. This is an informational message; no user action is required.
2024-04-20 22:52:54.43 Server      Software Usage Metrics is disabled.
2024-04-20 22:52:54.52 spid22s     [1]. Feature Status: PVS: 0. CTR: 0. ConcurrentPFSUpdate: 1. ConcurrentGAMUpdate: 1. ConcurrentSGAMUpdate: 1, CleanupUnderUserTransaction: 0. TranLevelPVS: 0
2024-04-20 22:52:54.54 spid22s     Starting up database 'master'.
2024-04-20 22:52:56.27 Server      Common language runtime (CLR) functionality initialized.
2024-04-20 22:52:56.31 spid22s     [32762]. Feature Status: PVS: 0. CTR: 0. ConcurrentPFSUpdate: 1. ConcurrentGAMUpdate: 1. ConcurrentSGAMUpdate: 1, CleanupUnderUserTransaction: 0. TranLevelPVS: 0
2024-04-20 22:52:56.32 spid22s     Starting up database 'model_replicatedmaster'.
2024-04-20 22:52:56.33 spid23s     [32767]. Feature Status: PVS: 0. CTR: 0. ConcurrentPFSUpdate: 1. ConcurrentGAMUpdate: 1. ConcurrentSGAMUpdate: 1, CleanupUnderUserTransaction: 0. TranLevelPVS: 0
2024-04-20 22:52:56.35 spid23s     Starting up database 'mssqlsystemresource'.
2024-04-20 22:52:56.37 spid23s     The resource database build version is 16.00.4120. This is an informational message only. No user action is required.
2024-04-20 22:52:56.45 spid23s     [3]. Feature Status: PVS: 0. CTR: 0. ConcurrentPFSUpdate: 1. ConcurrentGAMUpdate: 1. ConcurrentSGAMUpdate: 1, CleanupUnderUserTransaction: 0. TranLevelPVS: 0
2024-04-20 22:52:56.47 spid23s     Starting up database 'model'.
2024-04-20 22:52:57.22 spid22s     The tail of the log for database model_replicatedmaster is being rewritten to match the new sector size of 4096 bytes.  2560 bytes at offset 99840 in file /var/opt/mssql/data/model_replicatedmaster.ldf will be written.
2024-04-20 22:52:57.34 spid22s     Converting database 'model_replicatedmaster' from version 927 to the current version 957.
2024-04-20 22:52:57.35 spid22s     Database 'model_replicatedmaster' running the upgrade step from version 927 to version 928.
2024-04-20 22:52:57.39 spid22s     Database 'model_replicatedmaster' running the upgrade step from version 928 to version 929.
2024-04-20 22:52:57.63 spid22s     Database 'model_replicatedmaster' running the upgrade step from version 929 to version 930.
2024-04-20 22:52:57.76 spid22s     Database 'model_replicatedmaster' running the upgrade step from version 930 to version 931.
2024-04-20 22:52:57.78 spid22s     Database 'model_replicatedmaster' running the upgrade step from version 931 to version 932.
2024-04-20 22:52:57.80 spid22s     Database 'model_replicatedmaster' running the upgrade step from version 932 to version 933.
2024-04-20 22:52:57.83 spid22s     Database 'model_replicatedmaster' running the upgrade step from version 933 to version 934.
2024-04-20 22:52:57.85 spid22s     Database 'model_replicatedmaster' running the upgrade step from version 934 to version 935.
2024-04-20 22:52:57.89 spid22s     Database 'model_replicatedmaster' running the upgrade step from version 935 to version 936.
2024-04-20 22:52:57.92 spid22s     Database 'model_replicatedmaster' running the upgrade step from version 936 to version 937.
2024-04-20 22:52:57.97 spid22s     Database 'model_replicatedmaster' running the upgrade step from version 937 to version 938.
2024-04-20 22:52:58.00 spid22s     Database 'model_replicatedmaster' running the upgrade step from version 938 to version 939.
2024-04-20 22:52:58.02 spid22s     Database 'model_replicatedmaster' running the upgrade step from version 939 to version 940.
2024-04-20 22:52:58.04 spid22s     Database 'model_replicatedmaster' running the upgrade step from version 940 to version 941.
2024-04-20 22:52:58.08 spid22s     Database 'model_replicatedmaster' running the upgrade step from version 941 to version 942.
2024-04-20 22:52:58.13 spid22s     Database 'model_replicatedmaster' running the upgrade step from version 942 to version 943.
2024-04-20 22:52:58.35 spid22s     Database 'model_replicatedmaster' running the upgrade step from version 943 to version 944.
2024-04-20 22:52:58.36 spid22s     Database 'model_replicatedmaster' running the upgrade step from version 944 to version 945.
2024-04-20 22:52:58.43 spid22s     Database 'model_replicatedmaster' running the upgrade step from version 945 to version 946.
2024-04-20 22:52:58.44 spid22s     Database 'model_replicatedmaster' running the upgrade step from version 946 to version 947.
2024-04-20 22:52:58.45 spid22s     Database 'model_replicatedmaster' running the upgrade step from version 947 to version 948.
2024-04-20 22:52:58.46 spid22s     Database 'model_replicatedmaster' running the upgrade step from version 948 to version 949.
2024-04-20 22:52:58.49 spid22s     Database 'model_replicatedmaster' running the upgrade step from version 949 to version 950.
2024-04-20 22:52:58.50 spid22s     Database 'model_replicatedmaster' running the upgrade step from version 950 to version 951.
2024-04-20 22:52:58.55 spid22s     Database 'model_replicatedmaster' running the upgrade step from version 951 to version 952.
2024-04-20 22:52:58.55 spid30s     A self-generated certificate was successfully loaded for encryption.
2024-04-20 22:52:58.56 spid22s     Database 'model_replicatedmaster' running the upgrade step from version 952 to version 953.
2024-04-20 22:52:58.56 spid30s     Server is listening on [ 'any' <ipv6> 1433] accept sockets 1.
2024-04-20 22:52:58.57 spid30s     Server is listening on [ 'any' <ipv4> 1433] accept sockets 1.
2024-04-20 22:52:58.60 spid22s     Database 'model_replicatedmaster' running the upgrade step from version 953 to version 954.
2024-04-20 22:52:58.61 Server      Server is listening on [ ::1 <ipv6> 1434] accept sockets 1.
2024-04-20 22:52:58.62 spid22s     Database 'model_replicatedmaster' running the upgrade step from version 954 to version 955.
2024-04-20 22:52:58.62 Server      Server is listening on [ 127.0.0.1 <ipv4> 1434] accept sockets 1.
2024-04-20 22:52:58.63 Server      Dedicated admin connection support was established for listening locally on port 1434.
2024-04-20 22:52:58.63 spid22s     Database 'model_replicatedmaster' running the upgrade step from version 955 to version 956.
2024-04-20 22:52:58.65 spid30s     Server is listening on [ ::1 <ipv6> 1431] accept sockets 1.
2024-04-20 22:52:58.65 spid30s     Server is listening on [ 127.0.0.1 <ipv4> 1431] accept sockets 1.
2024-04-20 22:52:58.66 spid30s     SQL Server is now ready for client connections. This is an informational message; no user action is required.
2024-04-20 22:52:58.72 spid22s     Database 'model_replicatedmaster' running the upgrade step from version 956 to version 957.
2024-04-20 22:52:58.84 spid22s     [32761]. Feature Status: PVS: 0. CTR: 0. ConcurrentPFSUpdate: 1. ConcurrentGAMUpdate: 1. ConcurrentSGAMUpdate: 1, CleanupUnderUserTransaction: 0. TranLevelPVS: 0
2024-04-20 22:52:58.85 spid22s     Starting up database 'model_msdb'.
2024-04-20 22:52:59.23 Server      External governance manager initialized
2024-04-20 22:52:59.51 spid22s     Converting database 'model_msdb' from version 927 to the current version 957.
2024-04-20 22:52:59.51 spid22s     Database 'model_msdb' running the upgrade step from version 927 to version 928.
2024-04-20 22:52:59.52 spid22s     Database 'model_msdb' running the upgrade step from version 928 to version 929.
2024-04-20 22:52:59.60 spid22s     Database 'model_msdb' running the upgrade step from version 929 to version 930.
2024-04-20 22:52:59.66 spid22s     Database 'model_msdb' running the upgrade step from version 930 to version 931.
2024-04-20 22:52:59.66 spid22s     Database 'model_msdb' running the upgrade step from version 931 to version 932.
2024-04-20 22:52:59.68 spid22s     Database 'model_msdb' running the upgrade step from version 932 to version 933.
2024-04-20 22:52:59.72 spid22s     Database 'model_msdb' running the upgrade step from version 933 to version 934.
2024-04-20 22:52:59.73 spid22s     Database 'model_msdb' running the upgrade step from version 934 to version 935.
2024-04-20 22:52:59.74 spid22s     Database 'model_msdb' running the upgrade step from version 935 to version 936.
2024-04-20 22:52:59.75 spid22s     Database 'model_msdb' running the upgrade step from version 936 to version 937.
2024-04-20 22:52:59.76 spid22s     Database 'model_msdb' running the upgrade step from version 937 to version 938.
2024-04-20 22:52:59.77 spid22s     Database 'model_msdb' running the upgrade step from version 938 to version 939.
2024-04-20 22:52:59.78 spid22s     Database 'model_msdb' running the upgrade step from version 939 to version 940.
2024-04-20 22:52:59.79 spid22s     Database 'model_msdb' running the upgrade step from version 940 to version 941.
2024-04-20 22:52:59.80 spid22s     Database 'model_msdb' running the upgrade step from version 941 to version 942.
2024-04-20 22:52:59.81 spid22s     Database 'model_msdb' running the upgrade step from version 942 to version 943.
2024-04-20 22:52:59.88 spid22s     Database 'model_msdb' running the upgrade step from version 943 to version 944.
2024-04-20 22:52:59.89 spid22s     Database 'model_msdb' running the upgrade step from version 944 to version 945.
2024-04-20 22:52:59.97 spid22s     Database 'model_msdb' running the upgrade step from version 945 to version 946.
2024-04-20 22:52:59.98 spid22s     Database 'model_msdb' running the upgrade step from version 946 to version 947.
2024-04-20 22:52:59.99 spid22s     Database 'model_msdb' running the upgrade step from version 947 to version 948.
2024-04-20 22:53:00.00 spid22s     Database 'model_msdb' running the upgrade step from version 948 to version 949.
2024-04-20 22:53:00.02 spid22s     Database 'model_msdb' running the upgrade step from version 949 to version 950.
2024-04-20 22:53:00.04 spid22s     Database 'model_msdb' running the upgrade step from version 950 to version 951.
2024-04-20 22:53:00.09 spid22s     Database 'model_msdb' running the upgrade step from version 951 to version 952.
2024-04-20 22:53:00.11 spid22s     Database 'model_msdb' running the upgrade step from version 952 to version 953.
2024-04-20 22:53:00.13 spid22s     Database 'model_msdb' running the upgrade step from version 953 to version 954.
2024-04-20 22:53:00.15 spid22s     Database 'model_msdb' running the upgrade step from version 954 to version 955.
2024-04-20 22:53:00.16 spid22s     Database 'model_msdb' running the upgrade step from version 955 to version 956.
2024-04-20 22:53:00.26 spid22s     Database 'model_msdb' running the upgrade step from version 956 to version 957.
2024-04-20 22:53:00.40 spid22s     Resource governor reconfiguration succeeded.
2024-04-20 22:53:00.43 spid42s     Attribute synchronization initialized
2024-04-20 22:53:00.43 spid42s     Attribute synchronization manager initialized
2024-04-20 22:53:00.43 spid22s     SQL Server Audit is starting the audits. This is an informational message. No user action is required.
2024-04-20 22:53:00.47 spid22s     SQL Server Audit has started the audits. This is an informational message. No user action is required.
2024-04-20 22:53:00.50 spid22s     XE session 'system_health' started.
2024-04-20 22:53:00.81 spid22s     XE session 'telemetry_xevents' started.
2024-04-20 22:53:00.89 spid22s     SQL Trace ID 1 was started by login "sa".
2024-04-20 22:53:00.92 spid22s     Server name is 'c59b69635422'. This is an informational message only. No user action is required.
2024-04-20 22:53:00.98 spid23s     Clearing tempdb database.
2024-04-20 22:53:00.98 spid58s     Always On: The availability replica manager is starting. This is an informational message only. No user action is required.
2024-04-20 22:53:01.01 spid59s     [4]. Feature Status: PVS: 0. CTR: 0. ConcurrentPFSUpdate: 1. ConcurrentGAMUpdate: 1. ConcurrentSGAMUpdate: 1, CleanupUnderUserTransaction: 0. TranLevelPVS: 0
2024-04-20 22:53:01.03 spid58s     Always On: The availability replica manager is waiting for the instance of SQL Server to allow client connections. This is an informational message only. No user action is required.
2024-04-20 22:53:01.02 spid60s     [5]. Feature Status: PVS: 0. CTR: 0. ConcurrentPFSUpdate: 1. ConcurrentGAMUpdate: 1. ConcurrentSGAMUpdate: 1, CleanupUnderUserTransaction: 0. TranLevelPVS: 0
2024-04-20 22:53:01.03 spid59s     Starting up database 'msdb'.
2024-04-20 22:53:01.05 spid60s     Starting up database 'IdentityDatabase'.
2024-04-20 22:53:01.05 spid60s     RemoveStaleDbEntries: Cleanup of stale DB entries called for database ID: [5]
2024-04-20 22:53:01.06 spid60s     RemoveStaleDbEntries: Cleanup of stale DB entries skipped because master db is not memory optimized. DbId: 5.
2024-04-20 22:53:02.07 spid60s     Parallel redo is started for database 'IdentityDatabase' with worker pool size [2].
2024-04-20 22:53:02.32 spid60s     Parallel redo is shutdown for database 'IdentityDatabase' with worker pool size [2].
2024-04-20 22:53:03.21 spid23s     [2]. Feature Status: PVS: 0. CTR: 0. ConcurrentPFSUpdate: 1. ConcurrentGAMUpdate: 1. ConcurrentSGAMUpdate: 1, CleanupUnderUserTransaction: 0. TranLevelPVS: 0
2024-04-20 22:53:03.23 spid23s     Starting up database 'tempdb'.
2024-04-20 22:53:04.45 spid20s     Using 'dbghelp.dll' version '4.0.5'
2024-04-20 22:53:06.39 spid23s     The tempdb database has 5 data file(s).
2024-04-20 22:53:06.43 spid60s     The Service Broker endpoint is in disabled or stopped state.
2024-04-20 22:53:06.43 spid60s     The Database Mirroring endpoint is in disabled or stopped state.
2024-04-20 22:53:06.45 spid60s     Service Broker manager has started.
2024-04-20 22:53:06.50 spid22s     Recovery is complete. This is an informational message only. No user action is required.
2024-04-20 22:58:17.89 spid22s     Always On: The availability replica manager is going offline because SQL Server is shutting down. This is an informational message only. No user action is required.
2024-04-20 22:58:17.93 spid22s     SQL Server is terminating in response to a 'stop' request from Service Control Manager. This is an informational message only. No user action is required.
2024-04-20 22:58:18.08 spid22s     .NET Framework runtime has been stopped.
2024-04-20 22:58:18.22 spid60s     Service Broker manager has shut down.
2024-04-20 22:58:18.77 spid22s     SQL Trace was stopped due to server shutdown. Trace ID = '1'. This is an informational message only; no user action is required.
