2024-04-19 03:26:44.67 Server      Microsoft SQL Server 2022 (RTM-CU12-GDR) (KB5036343) - 16.0.4120.1 (X64) 
	Mar 18 2024 12:02:14 
	Copyright (C) 2022 Microsoft Corporation
	Developer Edition (64-bit) on Linux (Ubuntu 22.04.4 LTS) <X64>
2024-04-19 03:26:44.74 Server      UTC adjustment: 0:00
2024-04-19 03:26:44.75 Server      (c) Microsoft Corporation.
2024-04-19 03:26:44.77 Server      All rights reserved.
2024-04-19 03:26:44.78 Server      Server process ID is 452.
2024-04-19 03:26:44.78 Server      Logging SQL Server messages in file '/var/opt/mssql/log/errorlog'.
2024-04-19 03:26:44.79 Server      Registry startup parameters: 
	 -d /var/opt/mssql/data/master.mdf
	 -l /var/opt/mssql/data/mastlog.ldf
	 -e /var/opt/mssql/log/errorlog
2024-04-19 03:26:44.95 Server      SQL Server detected 1 sockets with 5 cores per socket and 5 logical processors per socket, 5 total logical processors; using 5 logical processors based on SQL Server licensing. This is an informational message; no user action is required.
2024-04-19 03:26:44.96 Server      SQL Server is starting at normal priority base (=7). This is an informational message only. No user action is required.
2024-04-19 03:26:44.98 Server      Detected 3947 MB of RAM. This is an informational message; no user action is required.
2024-04-19 03:26:45.01 Server      Using conventional memory in the memory manager.
2024-04-19 03:26:45.01 Server      Detected pause instruction latency: 0 cycles.
2024-04-19 03:26:45.11 Server      SQL Server detected the following NUMA node configuration (NUMA Node number 0, Processor Group number 0, CPU Mask 0x000000000000001f).
2024-04-19 03:26:45.14 Server      Page exclusion bitmap is enabled.
2024-04-19 03:26:45.68 Server      Buffer pool extension is not supported on Linux platform.
2024-04-19 03:26:45.71 Server      Buffer Pool: Allocating 524288 bytes for 439692 hashPages.
2024-04-19 03:26:47.33 Server      Buffer pool extension is already disabled. No action is necessary.
2024-04-19 03:26:49.27 Server      Installing Client TLS certificates to the store.
2024-04-19 03:26:49.48 Server      CPU vectorization level(s) detected:  SSE SSE2 SSE3 SSSE3 SSE41 SSE42 POPCNT
2024-04-19 03:26:50.20 Server      Successfully initialized the TLS configuration. Allowed TLS protocol versions are ['1.0 1.1 1.2']. Allowed TLS ciphers are ['ECDHE-ECDSA-AES128-GCM-SHA256:ECDHE-ECDSA-AES256-GCM-SHA384:ECDHE-RSA-AES128-GCM-SHA256:ECDHE-RSA-AES256-GCM-SHA384:ECDHE-ECDSA-AES128-SHA256:ECDHE-ECDSA-AES256-SHA384:ECDHE-ECDSA-AES256-SHA:ECDHE-ECDSA-AES128-SHA:AES256-GCM-SHA384:AES128-GCM-SHA256:AES256-SHA256:AES128-SHA256:AES256-SHA:AES128-SHA:!DHE-RSA-AES256-GCM-SHA384:!DHE-RSA-AES128-GCM-SHA256:!DHE-RSA-AES256-SHA:!DHE-RSA-AES128-SHA'].
2024-04-19 03:26:51.86 Server      Query Store settings initialized with enabled = 1, 
2024-04-19 03:26:52.42 Server      The maximum number of dedicated administrator connections for this instance is '1'
2024-04-19 03:26:52.47 Server      Node configuration: node 0: CPU mask: 0x000000000000001f:0 Active CPU mask: 0x000000000000001f:0. This message provides a description of the NUMA configuration for this computer. This is an informational message only. No user action is required.
2024-04-19 03:26:52.96 Server      Using dynamic lock allocation.  Initial allocation of 2500 Lock blocks and 5000 Lock Owner blocks per node.  This is an informational message only.  No user action is required.
2024-04-19 03:26:55.12 Server      In-Memory OLTP initialized on lowend machine.
2024-04-19 03:26:56.37 Server      CLR version v4.0.30319 loaded.
2024-04-19 03:26:56.77 Server      [INFO] Created Extended Events session 'hkenginexesession'
2024-04-19 03:26:56.85 Server      Database Instant File Initialization: enabled. For security and performance considerations see the topic 'Database Instant File Initialization' in SQL Server Books Online. This is an informational message only. No user action is required.
2024-04-19 03:26:57.24 Server      Total Log Writer threads: 2. This is an informational message; no user action is required.
2024-04-19 03:26:57.49 Server      Software Usage Metrics is disabled.
2024-04-19 03:26:58.50 spid22s     [1]. Feature Status: PVS: 0. CTR: 0. ConcurrentPFSUpdate: 1. ConcurrentGAMUpdate: 1. ConcurrentSGAMUpdate: 1, CleanupUnderUserTransaction: 0. TranLevelPVS: 0
2024-04-19 03:26:58.54 spid22s     Starting up database 'master'.
2024-04-19 03:27:05.28 spid22s     Recovery completed for database master (database ID 1) in 3 second(s) (analysis 526 ms, redo 246 ms, undo 1114 ms [system undo 0 ms, regular undo 0 ms].) ADR-enabled=0, Is primary=1, OL-Enabled=0. This is an informational message only. No user action is required.
2024-04-19 03:27:11.50 Server      Common language runtime (CLR) functionality initialized.
2024-04-19 03:27:11.52 spid22s     [32762]. Feature Status: PVS: 0. CTR: 0. ConcurrentPFSUpdate: 1. ConcurrentGAMUpdate: 1. ConcurrentSGAMUpdate: 1, CleanupUnderUserTransaction: 0. TranLevelPVS: 0
2024-04-19 03:27:11.54 spid22s     Starting up database 'model_replicatedmaster'.
2024-04-19 03:27:11.64 spid23s     [32767]. Feature Status: PVS: 0. CTR: 0. ConcurrentPFSUpdate: 1. ConcurrentGAMUpdate: 1. ConcurrentSGAMUpdate: 1, CleanupUnderUserTransaction: 0. TranLevelPVS: 0
2024-04-19 03:27:11.65 spid23s     Starting up database 'mssqlsystemresource'.
2024-04-19 03:27:11.70 spid23s     The resource database build version is 16.00.4120. This is an informational message only. No user action is required.
2024-04-19 03:27:13.14 spid23s     [3]. Feature Status: PVS: 0. CTR: 0. ConcurrentPFSUpdate: 1. ConcurrentGAMUpdate: 1. ConcurrentSGAMUpdate: 1, CleanupUnderUserTransaction: 0. TranLevelPVS: 0
2024-04-19 03:27:13.30 spid23s     Starting up database 'model'.
2024-04-19 03:27:17.87 spid30s     A self-generated certificate was successfully loaded for encryption.
2024-04-19 03:27:17.96 spid30s     Server is listening on [ 'any' <ipv6> 1433] accept sockets 1.
2024-04-19 03:27:17.98 spid30s     Server is listening on [ 'any' <ipv4> 1433] accept sockets 1.
2024-04-19 03:27:18.11 Server      Server is listening on [ ::1 <ipv6> 1434] accept sockets 1.
2024-04-19 03:27:18.15 Server      Server is listening on [ 127.0.0.1 <ipv4> 1434] accept sockets 1.
2024-04-19 03:27:18.17 Server      Dedicated admin connection support was established for listening locally on port 1434.
2024-04-19 03:27:18.44 spid30s     Server is listening on [ ::1 <ipv6> 1431] accept sockets 1.
2024-04-19 03:27:18.50 spid30s     Server is listening on [ 127.0.0.1 <ipv4> 1431] accept sockets 1.
2024-04-19 03:27:18.58 spid30s     SQL Server is now ready for client connections. This is an informational message; no user action is required.
2024-04-19 03:27:21.06 spid22s     The tail of the log for database model_replicatedmaster is being rewritten to match the new sector size of 4096 bytes.  2560 bytes at offset 99840 in file /var/opt/mssql/data/model_replicatedmaster.ldf will be written.
2024-04-19 03:27:21.86 spid22s     Recovery completed for database model_replicatedmaster (database ID 32762) in 2 second(s) (analysis 254 ms, redo 6 ms, undo 304 ms [system undo 0 ms, regular undo 0 ms].) ADR-enabled=0, Is primary=1, OL-Enabled=0. This is an informational message only. No user action is required.
2024-04-19 03:27:22.28 spid22s     Converting database 'model_replicatedmaster' from version 927 to the current version 957.
2024-04-19 03:27:22.29 spid22s     Database 'model_replicatedmaster' running the upgrade step from version 927 to version 928.
2024-04-19 03:27:22.40 spid22s     Database 'model_replicatedmaster' running the upgrade step from version 928 to version 929.
2024-04-19 03:27:22.44 spid23s     Recovery completed for database model (database ID 3) in 2 second(s) (analysis 622 ms, redo 1 ms, undo 58 ms [system undo 0 ms, regular undo 0 ms].) ADR-enabled=0, Is primary=1, OL-Enabled=0. This is an informational message only. No user action is required.
2024-04-19 03:27:22.91 spid22s     Database 'model_replicatedmaster' running the upgrade step from version 929 to version 930.
2024-04-19 03:27:23.07 spid22s     Database 'model_replicatedmaster' running the upgrade step from version 930 to version 931.
2024-04-19 03:27:23.11 spid22s     Database 'model_replicatedmaster' running the upgrade step from version 931 to version 932.
2024-04-19 03:27:23.13 spid22s     Database 'model_replicatedmaster' running the upgrade step from version 932 to version 933.
2024-04-19 03:27:23.19 spid22s     Database 'model_replicatedmaster' running the upgrade step from version 933 to version 934.
2024-04-19 03:27:23.21 spid22s     Database 'model_replicatedmaster' running the upgrade step from version 934 to version 935.
2024-04-19 03:27:23.24 spid22s     Database 'model_replicatedmaster' running the upgrade step from version 935 to version 936.
2024-04-19 03:27:23.26 spid22s     Database 'model_replicatedmaster' running the upgrade step from version 936 to version 937.
2024-04-19 03:27:23.29 spid22s     Database 'model_replicatedmaster' running the upgrade step from version 937 to version 938.
2024-04-19 03:27:23.30 spid22s     Database 'model_replicatedmaster' running the upgrade step from version 938 to version 939.
2024-04-19 03:27:23.34 spid22s     Database 'model_replicatedmaster' running the upgrade step from version 939 to version 940.
2024-04-19 03:27:23.36 spid22s     Database 'model_replicatedmaster' running the upgrade step from version 940 to version 941.
2024-04-19 03:27:23.42 spid22s     Database 'model_replicatedmaster' running the upgrade step from version 941 to version 942.
2024-04-19 03:27:23.44 spid22s     Database 'model_replicatedmaster' running the upgrade step from version 942 to version 943.
2024-04-19 03:27:24.05 spid22s     Database 'model_replicatedmaster' running the upgrade step from version 943 to version 944.
2024-04-19 03:27:24.10 spid22s     Database 'model_replicatedmaster' running the upgrade step from version 944 to version 945.
2024-04-19 03:27:24.30 spid22s     Database 'model_replicatedmaster' running the upgrade step from version 945 to version 946.
2024-04-19 03:27:24.33 spid22s     Database 'model_replicatedmaster' running the upgrade step from version 946 to version 947.
2024-04-19 03:27:24.38 spid22s     Database 'model_replicatedmaster' running the upgrade step from version 947 to version 948.
2024-04-19 03:27:24.40 spid22s     Database 'model_replicatedmaster' running the upgrade step from version 948 to version 949.
2024-04-19 03:27:24.47 spid22s     Database 'model_replicatedmaster' running the upgrade step from version 949 to version 950.
2024-04-19 03:27:24.49 spid22s     Database 'model_replicatedmaster' running the upgrade step from version 950 to version 951.
2024-04-19 03:27:24.67 spid22s     Database 'model_replicatedmaster' running the upgrade step from version 951 to version 952.
2024-04-19 03:27:24.68 spid22s     Database 'model_replicatedmaster' running the upgrade step from version 952 to version 953.
2024-04-19 03:27:24.72 spid22s     Database 'model_replicatedmaster' running the upgrade step from version 953 to version 954.
2024-04-19 03:27:24.73 spid22s     Database 'model_replicatedmaster' running the upgrade step from version 954 to version 955.
2024-04-19 03:27:24.75 spid22s     Database 'model_replicatedmaster' running the upgrade step from version 955 to version 956.
2024-04-19 03:27:24.95 spid22s     Database 'model_replicatedmaster' running the upgrade step from version 956 to version 957.
2024-04-19 03:27:25.51 spid22s     [32761]. Feature Status: PVS: 0. CTR: 0. ConcurrentPFSUpdate: 1. ConcurrentGAMUpdate: 1. ConcurrentSGAMUpdate: 1, CleanupUnderUserTransaction: 0. TranLevelPVS: 0
2024-04-19 03:27:25.53 spid22s     Starting up database 'model_msdb'.
2024-04-19 03:27:25.95 Server      External governance manager initialized
2024-04-19 03:27:27.47 spid22s     Converting database 'model_msdb' from version 927 to the current version 957.
2024-04-19 03:27:27.48 spid22s     Database 'model_msdb' running the upgrade step from version 927 to version 928.
2024-04-19 03:27:27.50 spid22s     Database 'model_msdb' running the upgrade step from version 928 to version 929.
2024-04-19 03:27:27.89 Logon       Error: 18456, Severity: 14, State: 38.
2024-04-19 03:27:27.89 Logon       Login failed for user 'sa'. Reason: Failed to open the explicitly specified database 'IdentityDatabase'. [CLIENT: 172.21.0.9]
2024-04-19 03:27:27.98 spid22s     Database 'model_msdb' running the upgrade step from version 929 to version 930.
2024-04-19 03:27:28.18 spid22s     Database 'model_msdb' running the upgrade step from version 930 to version 931.
2024-04-19 03:27:28.22 spid22s     Database 'model_msdb' running the upgrade step from version 931 to version 932.
2024-04-19 03:27:28.24 spid22s     Database 'model_msdb' running the upgrade step from version 932 to version 933.
2024-04-19 03:27:28.32 spid22s     Database 'model_msdb' running the upgrade step from version 933 to version 934.
2024-04-19 03:27:28.34 spid22s     Database 'model_msdb' running the upgrade step from version 934 to version 935.
2024-04-19 03:27:28.35 spid22s     Database 'model_msdb' running the upgrade step from version 935 to version 936.
2024-04-19 03:27:28.37 spid22s     Database 'model_msdb' running the upgrade step from version 936 to version 937.
2024-04-19 03:27:28.39 spid22s     Database 'model_msdb' running the upgrade step from version 937 to version 938.
2024-04-19 03:27:28.42 spid22s     Database 'model_msdb' running the upgrade step from version 938 to version 939.
2024-04-19 03:27:28.43 spid22s     Database 'model_msdb' running the upgrade step from version 939 to version 940.
2024-04-19 03:27:28.45 spid22s     Database 'model_msdb' running the upgrade step from version 940 to version 941.
2024-04-19 03:27:28.47 spid22s     Database 'model_msdb' running the upgrade step from version 941 to version 942.
2024-04-19 03:27:28.50 spid22s     Database 'model_msdb' running the upgrade step from version 942 to version 943.
2024-04-19 03:27:28.68 spid22s     Database 'model_msdb' running the upgrade step from version 943 to version 944.
2024-04-19 03:27:28.70 spid22s     Database 'model_msdb' running the upgrade step from version 944 to version 945.
2024-04-19 03:27:28.78 spid22s     Database 'model_msdb' running the upgrade step from version 945 to version 946.
2024-04-19 03:27:28.80 spid22s     Database 'model_msdb' running the upgrade step from version 946 to version 947.
2024-04-19 03:27:28.82 spid22s     Database 'model_msdb' running the upgrade step from version 947 to version 948.
2024-04-19 03:27:28.83 spid22s     Database 'model_msdb' running the upgrade step from version 948 to version 949.
2024-04-19 03:27:28.85 spid22s     Database 'model_msdb' running the upgrade step from version 949 to version 950.
2024-04-19 03:27:28.85 spid22s     Database 'model_msdb' running the upgrade step from version 950 to version 951.
2024-04-19 03:27:28.97 spid22s     Database 'model_msdb' running the upgrade step from version 951 to version 952.
2024-04-19 03:27:28.99 spid22s     Database 'model_msdb' running the upgrade step from version 952 to version 953.
2024-04-19 03:27:29.01 spid22s     Database 'model_msdb' running the upgrade step from version 953 to version 954.
2024-04-19 03:27:29.03 spid22s     Database 'model_msdb' running the upgrade step from version 954 to version 955.
2024-04-19 03:27:29.05 spid22s     Database 'model_msdb' running the upgrade step from version 955 to version 956.
2024-04-19 03:27:29.29 spid22s     Database 'model_msdb' running the upgrade step from version 956 to version 957.
2024-04-19 03:27:29.89 spid32s     Attribute synchronization initialized
2024-04-19 03:27:29.89 spid22s     Resource governor reconfiguration succeeded.
2024-04-19 03:27:29.91 spid32s     Attribute synchronization manager initialized
2024-04-19 03:27:29.93 spid22s     SQL Server Audit is starting the audits. This is an informational message. No user action is required.
2024-04-19 03:27:29.99 spid22s     SQL Server Audit has started the audits. This is an informational message. No user action is required.
2024-04-19 03:27:30.21 spid22s     XE session 'system_health' started.
2024-04-19 03:27:31.06 spid22s     XE session 'telemetry_xevents' started.
2024-04-19 03:27:31.31 spid22s     SQL Trace ID 1 was started by login "sa".
2024-04-19 03:27:31.39 spid22s     Server name is 'c59b69635422'. This is an informational message only. No user action is required.
2024-04-19 03:27:31.52 spid23s     Clearing tempdb database.
2024-04-19 03:27:31.52 spid87s     Always On: The availability replica manager is starting. This is an informational message only. No user action is required.
2024-04-19 03:27:31.55 spid88s     [5]. Feature Status: PVS: 0. CTR: 0. ConcurrentPFSUpdate: 1. ConcurrentGAMUpdate: 1. ConcurrentSGAMUpdate: 1, CleanupUnderUserTransaction: 0. TranLevelPVS: 0
2024-04-19 03:27:31.57 spid87s     Always On: The availability replica manager is waiting for the instance of SQL Server to allow client connections. This is an informational message only. No user action is required.
2024-04-19 03:27:31.56 spid90s     [4]. Feature Status: PVS: 0. CTR: 0. ConcurrentPFSUpdate: 1. ConcurrentGAMUpdate: 1. ConcurrentSGAMUpdate: 1, CleanupUnderUserTransaction: 0. TranLevelPVS: 0
2024-04-19 03:27:31.57 spid88s     Starting up database 'IdentityDatabase'.
2024-04-19 03:27:31.61 spid90s     Starting up database 'msdb'.
2024-04-19 03:27:31.61 spid88s     RemoveStaleDbEntries: Cleanup of stale DB entries called for database ID: [5]
2024-04-19 03:27:31.62 spid88s     RemoveStaleDbEntries: Cleanup of stale DB entries skipped because master db is not memory optimized. DbId: 5.
2024-04-19 03:27:32.90 spid20s     Using 'dbghelp.dll' version '4.0.5'
2024-04-19 03:27:34.14 spid88s     Parallel redo is started for database 'IdentityDatabase' with worker pool size [2].
2024-04-19 03:27:34.80 spid22s     Parallel redo is shutdown for database 'IdentityDatabase' with worker pool size [2].
2024-04-19 03:27:39.63 spid23s     [2]. Feature Status: PVS: 0. CTR: 0. ConcurrentPFSUpdate: 1. ConcurrentGAMUpdate: 1. ConcurrentSGAMUpdate: 1, CleanupUnderUserTransaction: 0. TranLevelPVS: 0
2024-04-19 03:27:39.64 spid23s     Starting up database 'tempdb'.
2024-04-19 03:27:50.19 spid23s     The tempdb database has 5 data file(s).
2024-04-19 03:27:50.59 spid88s     The Service Broker endpoint is in disabled or stopped state.
2024-04-19 03:27:50.63 spid88s     The Database Mirroring endpoint is in disabled or stopped state.
2024-04-19 03:27:50.99 spid88s     Service Broker manager has started.
2024-04-19 03:27:51.17 spid22s     Recovery is complete. This is an informational message only. No user action is required.
2024-04-19 03:34:29.22 spid22s     Always On: The availability replica manager is going offline because SQL Server is shutting down. This is an informational message only. No user action is required.
2024-04-19 03:34:29.28 spid22s     SQL Server is terminating in response to a 'stop' request from Service Control Manager. This is an informational message only. No user action is required.
2024-04-19 03:34:29.54 spid22s     .NET Framework runtime has been stopped.
2024-04-19 03:34:29.78 spid88s     Service Broker manager has shut down.
2024-04-19 03:34:30.56 spid22s     SQL Trace was stopped due to server shutdown. Trace ID = '1'. This is an informational message only; no user action is required.
