2024-04-20 04:39:21.62 Server      Microsoft SQL Server 2022 (RTM-CU12-GDR) (KB5036343) - 16.0.4120.1 (X64) 
	Mar 18 2024 12:02:14 
	Copyright (C) 2022 Microsoft Corporation
	Developer Edition (64-bit) on Linux (Ubuntu 22.04.4 LTS) <X64>
2024-04-20 04:39:21.67 Server      UTC adjustment: 0:00
2024-04-20 04:39:21.68 Server      (c) Microsoft Corporation.
2024-04-20 04:39:21.69 Server      All rights reserved.
2024-04-20 04:39:21.71 Server      Server process ID is 460.
2024-04-20 04:39:21.72 Server      Logging SQL Server messages in file '/var/opt/mssql/log/errorlog'.
2024-04-20 04:39:21.73 Server      Registry startup parameters: 
	 -d /var/opt/mssql/data/master.mdf
	 -l /var/opt/mssql/data/mastlog.ldf
	 -e /var/opt/mssql/log/errorlog
2024-04-20 04:39:21.91 Server      SQL Server detected 1 sockets with 5 cores per socket and 5 logical processors per socket, 5 total logical processors; using 5 logical processors based on SQL Server licensing. This is an informational message; no user action is required.
2024-04-20 04:39:21.96 Server      SQL Server is starting at normal priority base (=7). This is an informational message only. No user action is required.
2024-04-20 04:39:21.99 Server      Detected 3947 MB of RAM. This is an informational message; no user action is required.
2024-04-20 04:39:22.04 Server      Using conventional memory in the memory manager.
2024-04-20 04:39:22.04 Server      Detected pause instruction latency: 0 cycles.
2024-04-20 04:39:22.11 Server      SQL Server detected the following NUMA node configuration (NUMA Node number 0, Processor Group number 0, CPU Mask 0x000000000000001f).
2024-04-20 04:39:22.17 Server      Page exclusion bitmap is enabled.
2024-04-20 04:39:23.04 Server      Buffer pool extension is not supported on Linux platform.
2024-04-20 04:39:23.10 Server      Buffer Pool: Allocating 524288 bytes for 431741 hashPages.
2024-04-20 04:39:28.04 Server      Buffer pool extension is already disabled. No action is necessary.
2024-04-20 04:39:29.47 Server      Installing Client TLS certificates to the store.
2024-04-20 04:39:30.25 Server      CPU vectorization level(s) detected:  SSE SSE2 SSE3 SSSE3 SSE41 SSE42 POPCNT
2024-04-20 04:39:31.89 Server      Successfully initialized the TLS configuration. Allowed TLS protocol versions are ['1.0 1.1 1.2']. Allowed TLS ciphers are ['ECDHE-ECDSA-AES128-GCM-SHA256:ECDHE-ECDSA-AES256-GCM-SHA384:ECDHE-RSA-AES128-GCM-SHA256:ECDHE-RSA-AES256-GCM-SHA384:ECDHE-ECDSA-AES128-SHA256:ECDHE-ECDSA-AES256-SHA384:ECDHE-ECDSA-AES256-SHA:ECDHE-ECDSA-AES128-SHA:AES256-GCM-SHA384:AES128-GCM-SHA256:AES256-SHA256:AES128-SHA256:AES256-SHA:AES128-SHA:!DHE-RSA-AES256-GCM-SHA384:!DHE-RSA-AES128-GCM-SHA256:!DHE-RSA-AES256-SHA:!DHE-RSA-AES128-SHA'].
2024-04-20 04:39:33.57 Server      Query Store settings initialized with enabled = 1, 
2024-04-20 04:39:34.71 Server      The maximum number of dedicated administrator connections for this instance is '1'
2024-04-20 04:39:34.74 Server      Node configuration: node 0: CPU mask: 0x000000000000001f:0 Active CPU mask: 0x000000000000001f:0. This message provides a description of the NUMA configuration for this computer. This is an informational message only. No user action is required.
2024-04-20 04:39:36.07 Server      Using dynamic lock allocation.  Initial allocation of 2500 Lock blocks and 5000 Lock Owner blocks per node.  This is an informational message only.  No user action is required.
2024-04-20 04:39:37.92 Server      In-Memory OLTP initialized on lowend machine.
2024-04-20 04:39:47.88 Server      CLR version v4.0.30319 loaded.
2024-04-20 04:39:50.46 Server      [INFO] Created Extended Events session 'hkenginexesession'
2024-04-20 04:39:51.66 Server      Database Instant File Initialization: enabled. For security and performance considerations see the topic 'Database Instant File Initialization' in SQL Server Books Online. This is an informational message only. No user action is required.
2024-04-20 04:39:53.22 Server      Total Log Writer threads: 2. This is an informational message; no user action is required.
2024-04-20 04:39:53.72 Server      Software Usage Metrics is disabled.
2024-04-20 04:39:55.00 spid22s     [1]. Feature Status: PVS: 0. CTR: 0. ConcurrentPFSUpdate: 1. ConcurrentGAMUpdate: 1. ConcurrentSGAMUpdate: 1, CleanupUnderUserTransaction: 0. TranLevelPVS: 0
2024-04-20 04:39:55.18 spid22s     Starting up database 'master'.
2024-04-20 04:40:03.01 spid22s     Recovery completed for database master (database ID 1) in 3 second(s) (analysis 257 ms, redo 526 ms, undo 889 ms [system undo 0 ms, regular undo 0 ms].) ADR-enabled=0, Is primary=1, OL-Enabled=0. This is an informational message only. No user action is required.
2024-04-20 04:40:21.37 Server      Common language runtime (CLR) functionality initialized.
2024-04-20 04:40:22.50 spid22s     [32762]. Feature Status: PVS: 0. CTR: 0. ConcurrentPFSUpdate: 1. ConcurrentGAMUpdate: 1. ConcurrentSGAMUpdate: 1, CleanupUnderUserTransaction: 0. TranLevelPVS: 0
2024-04-20 04:40:22.86 spid22s     Starting up database 'model_replicatedmaster'.
2024-04-20 04:40:23.11 spid23s     [32767]. Feature Status: PVS: 0. CTR: 0. ConcurrentPFSUpdate: 1. ConcurrentGAMUpdate: 1. ConcurrentSGAMUpdate: 1, CleanupUnderUserTransaction: 0. TranLevelPVS: 0
2024-04-20 04:40:23.60 spid23s     Starting up database 'mssqlsystemresource'.
2024-04-20 04:40:24.21 spid23s     The resource database build version is 16.00.4120. This is an informational message only. No user action is required.
2024-04-20 04:40:33.32 spid23s     [3]. Feature Status: PVS: 0. CTR: 0. ConcurrentPFSUpdate: 1. ConcurrentGAMUpdate: 1. ConcurrentSGAMUpdate: 1, CleanupUnderUserTransaction: 0. TranLevelPVS: 0
2024-04-20 04:40:33.57 spid23s     Starting up database 'model'.
2024-04-20 04:40:36.66 spid30s     A self-generated certificate was successfully loaded for encryption.
2024-04-20 04:40:36.78 spid30s     Server is listening on [ 'any' <ipv6> 1433] accept sockets 1.
2024-04-20 04:40:36.81 spid30s     Server is listening on [ 'any' <ipv4> 1433] accept sockets 1.
2024-04-20 04:40:36.92 Server      Server is listening on [ ::1 <ipv6> 1434] accept sockets 1.
2024-04-20 04:40:37.00 Server      Server is listening on [ 127.0.0.1 <ipv4> 1434] accept sockets 1.
2024-04-20 04:40:37.04 Server      Dedicated admin connection support was established for listening locally on port 1434.
2024-04-20 04:40:37.10 Server      Long Sync IO: Scheduler 0 had 1 Sync IOs in nonpreemptive mode longer than 1000 ms
2024-04-20 04:40:37.24 spid30s     Server is listening on [ ::1 <ipv6> 1431] accept sockets 1.
2024-04-20 04:40:37.27 spid30s     Server is listening on [ 127.0.0.1 <ipv4> 1431] accept sockets 1.
2024-04-20 04:40:37.29 spid30s     SQL Server is now ready for client connections. This is an informational message; no user action is required.
2024-04-20 04:40:39.05 spid22s     The tail of the log for database model_replicatedmaster is being rewritten to match the new sector size of 4096 bytes.  2560 bytes at offset 99840 in file /var/opt/mssql/data/model_replicatedmaster.ldf will be written.
2024-04-20 04:40:39.58 spid22s     Converting database 'model_replicatedmaster' from version 927 to the current version 957.
2024-04-20 04:40:39.60 spid22s     Database 'model_replicatedmaster' running the upgrade step from version 927 to version 928.
2024-04-20 04:40:39.72 spid22s     Database 'model_replicatedmaster' running the upgrade step from version 928 to version 929.
2024-04-20 04:40:40.91 spid22s     Database 'model_replicatedmaster' running the upgrade step from version 929 to version 930.
2024-04-20 04:40:41.87 spid23s     Recovery completed for database model (database ID 3) in 2 second(s) (analysis 377 ms, redo 0 ms, undo 304 ms [system undo 0 ms, regular undo 0 ms].) ADR-enabled=0, Is primary=1, OL-Enabled=0. This is an informational message only. No user action is required.
2024-04-20 04:40:41.92 spid22s     Database 'model_replicatedmaster' running the upgrade step from version 930 to version 931.
2024-04-20 04:40:42.08 spid22s     Database 'model_replicatedmaster' running the upgrade step from version 931 to version 932.
2024-04-20 04:40:42.17 spid22s     Database 'model_replicatedmaster' running the upgrade step from version 932 to version 933.
2024-04-20 04:40:42.29 spid22s     Database 'model_replicatedmaster' running the upgrade step from version 933 to version 934.
2024-04-20 04:40:42.34 spid22s     Database 'model_replicatedmaster' running the upgrade step from version 934 to version 935.
2024-04-20 04:40:42.41 spid22s     Database 'model_replicatedmaster' running the upgrade step from version 935 to version 936.
2024-04-20 04:40:42.48 spid22s     Database 'model_replicatedmaster' running the upgrade step from version 936 to version 937.
2024-04-20 04:40:42.52 spid22s     Database 'model_replicatedmaster' running the upgrade step from version 937 to version 938.
2024-04-20 04:40:42.60 spid22s     Database 'model_replicatedmaster' running the upgrade step from version 938 to version 939.
2024-04-20 04:40:42.63 spid22s     Database 'model_replicatedmaster' running the upgrade step from version 939 to version 940.
2024-04-20 04:40:42.68 spid22s     Database 'model_replicatedmaster' running the upgrade step from version 940 to version 941.
2024-04-20 04:40:42.70 spid22s     Database 'model_replicatedmaster' running the upgrade step from version 941 to version 942.
2024-04-20 04:40:42.74 spid22s     Database 'model_replicatedmaster' running the upgrade step from version 942 to version 943.
2024-04-20 04:40:43.42 spid22s     Database 'model_replicatedmaster' running the upgrade step from version 943 to version 944.
2024-04-20 04:40:43.48 spid22s     Database 'model_replicatedmaster' running the upgrade step from version 944 to version 945.
2024-04-20 04:40:43.60 spid22s     Database 'model_replicatedmaster' running the upgrade step from version 945 to version 946.
2024-04-20 04:40:43.66 spid22s     Database 'model_replicatedmaster' running the upgrade step from version 946 to version 947.
2024-04-20 04:40:43.70 spid22s     Database 'model_replicatedmaster' running the upgrade step from version 947 to version 948.
2024-04-20 04:40:43.72 spid22s     Database 'model_replicatedmaster' running the upgrade step from version 948 to version 949.
2024-04-20 04:40:43.78 spid22s     Database 'model_replicatedmaster' running the upgrade step from version 949 to version 950.
2024-04-20 04:40:43.79 spid22s     Database 'model_replicatedmaster' running the upgrade step from version 950 to version 951.
2024-04-20 04:40:44.09 spid22s     Database 'model_replicatedmaster' running the upgrade step from version 951 to version 952.
2024-04-20 04:40:44.14 spid22s     Database 'model_replicatedmaster' running the upgrade step from version 952 to version 953.
2024-04-20 04:40:44.19 spid22s     Database 'model_replicatedmaster' running the upgrade step from version 953 to version 954.
2024-04-20 04:40:44.24 spid22s     Database 'model_replicatedmaster' running the upgrade step from version 954 to version 955.
2024-04-20 04:40:44.28 spid22s     Database 'model_replicatedmaster' running the upgrade step from version 955 to version 956.
2024-04-20 04:40:45.27 spid22s     Database 'model_replicatedmaster' running the upgrade step from version 956 to version 957.
2024-04-20 04:40:46.01 Server      External governance manager initialized
2024-04-20 04:40:48.18 spid22s     [32761]. Feature Status: PVS: 0. CTR: 0. ConcurrentPFSUpdate: 1. ConcurrentGAMUpdate: 1. ConcurrentSGAMUpdate: 1, CleanupUnderUserTransaction: 0. TranLevelPVS: 0
2024-04-20 04:40:48.22 spid22s     Starting up database 'model_msdb'.
2024-04-20 04:40:53.59 spid22s     Converting database 'model_msdb' from version 927 to the current version 957.
2024-04-20 04:40:53.60 spid22s     Database 'model_msdb' running the upgrade step from version 927 to version 928.
2024-04-20 04:40:53.67 spid22s     Database 'model_msdb' running the upgrade step from version 928 to version 929.
2024-04-20 04:40:54.41 spid22s     Database 'model_msdb' running the upgrade step from version 929 to version 930.
2024-04-20 04:40:54.70 spid22s     Database 'model_msdb' running the upgrade step from version 930 to version 931.
2024-04-20 04:40:55.38 spid22s     Database 'model_msdb' running the upgrade step from version 931 to version 932.
2024-04-20 04:40:55.44 spid22s     Database 'model_msdb' running the upgrade step from version 932 to version 933.
2024-04-20 04:40:56.04 spid22s     Database 'model_msdb' running the upgrade step from version 933 to version 934.
2024-04-20 04:40:56.19 spid22s     Database 'model_msdb' running the upgrade step from version 934 to version 935.
2024-04-20 04:40:56.24 spid22s     Database 'model_msdb' running the upgrade step from version 935 to version 936.
2024-04-20 04:40:56.29 spid22s     Database 'model_msdb' running the upgrade step from version 936 to version 937.
2024-04-20 04:40:56.46 spid22s     Database 'model_msdb' running the upgrade step from version 937 to version 938.
2024-04-20 04:40:56.54 spid22s     Database 'model_msdb' running the upgrade step from version 938 to version 939.
2024-04-20 04:40:56.58 spid22s     Database 'model_msdb' running the upgrade step from version 939 to version 940.
2024-04-20 04:40:56.60 spid22s     Database 'model_msdb' running the upgrade step from version 940 to version 941.
2024-04-20 04:40:56.65 spid22s     Database 'model_msdb' running the upgrade step from version 941 to version 942.
2024-04-20 04:40:56.68 spid22s     Database 'model_msdb' running the upgrade step from version 942 to version 943.
2024-04-20 04:40:56.90 spid22s     Database 'model_msdb' running the upgrade step from version 943 to version 944.
2024-04-20 04:40:56.94 spid22s     Database 'model_msdb' running the upgrade step from version 944 to version 945.
2024-04-20 04:40:57.10 spid22s     Database 'model_msdb' running the upgrade step from version 945 to version 946.
2024-04-20 04:40:57.11 spid22s     Database 'model_msdb' running the upgrade step from version 946 to version 947.
2024-04-20 04:40:57.14 spid22s     Database 'model_msdb' running the upgrade step from version 947 to version 948.
2024-04-20 04:40:57.16 spid22s     Database 'model_msdb' running the upgrade step from version 948 to version 949.
2024-04-20 04:40:57.20 spid22s     Database 'model_msdb' running the upgrade step from version 949 to version 950.
2024-04-20 04:40:57.21 spid22s     Database 'model_msdb' running the upgrade step from version 950 to version 951.
2024-04-20 04:40:57.30 spid22s     Database 'model_msdb' running the upgrade step from version 951 to version 952.
2024-04-20 04:40:57.38 spid22s     Database 'model_msdb' running the upgrade step from version 952 to version 953.
2024-04-20 04:40:57.49 spid22s     Database 'model_msdb' running the upgrade step from version 953 to version 954.
2024-04-20 04:40:57.51 spid22s     Database 'model_msdb' running the upgrade step from version 954 to version 955.
2024-04-20 04:40:57.53 spid22s     Database 'model_msdb' running the upgrade step from version 955 to version 956.
2024-04-20 04:40:57.99 spid22s     Database 'model_msdb' running the upgrade step from version 956 to version 957.
2024-04-20 04:41:00.38 spid22s     Resource governor reconfiguration succeeded.
2024-04-20 04:41:00.48 spid22s     SQL Server Audit is starting the audits. This is an informational message. No user action is required.
2024-04-20 04:41:00.49 spid43s     Attribute synchronization initialized
2024-04-20 04:41:00.53 spid43s     Attribute synchronization manager initialized
2024-04-20 04:41:00.61 spid22s     SQL Server Audit has started the audits. This is an informational message. No user action is required.
2024-04-20 04:41:00.71 spid22s     XE session 'system_health' started.
2024-04-20 04:41:01.14 spid22s     XE session 'telemetry_xevents' started.
2024-04-20 04:41:01.41 spid22s     SQL Trace ID 1 was started by login "sa".
2024-04-20 04:41:01.65 spid22s     Server name is 'c59b69635422'. This is an informational message only. No user action is required.
2024-04-20 04:41:01.97 spid23s     Clearing tempdb database.
2024-04-20 04:41:01.95 spid82s     Always On: The availability replica manager is starting. This is an informational message only. No user action is required.
2024-04-20 04:41:02.02 spid86s     [5]. Feature Status: PVS: 0. CTR: 0. ConcurrentPFSUpdate: 1. ConcurrentGAMUpdate: 1. ConcurrentSGAMUpdate: 1, CleanupUnderUserTransaction: 0. TranLevelPVS: 0
2024-04-20 04:41:02.07 spid84s     [4]. Feature Status: PVS: 0. CTR: 0. ConcurrentPFSUpdate: 1. ConcurrentGAMUpdate: 1. ConcurrentSGAMUpdate: 1, CleanupUnderUserTransaction: 0. TranLevelPVS: 0
2024-04-20 04:41:02.08 spid86s     Starting up database 'IdentityDatabase'.
2024-04-20 04:41:02.12 spid84s     Starting up database 'msdb'.
2024-04-20 04:41:02.09 spid82s     Always On: The availability replica manager is waiting for the instance of SQL Server to allow client connections. This is an informational message only. No user action is required.
2024-04-20 04:41:02.12 spid86s     RemoveStaleDbEntries: Cleanup of stale DB entries called for database ID: [5]
2024-04-20 04:41:02.18 spid86s     RemoveStaleDbEntries: Cleanup of stale DB entries skipped because master db is not memory optimized. DbId: 5.
2024-04-20 04:41:06.54 spid86s     Parallel redo is started for database 'IdentityDatabase' with worker pool size [2].
2024-04-20 04:41:07.47 spid20s     Using 'dbghelp.dll' version '4.0.5'
2024-04-20 04:41:11.55 spid22s     Recovery completed for database msdb (database ID 4) in 6 second(s) (analysis 3323 ms, redo 84 ms, undo 784 ms [system undo 0 ms, regular undo 0 ms].) ADR-enabled=0, Is primary=1, OL-Enabled=0. This is an informational message only. No user action is required.
2024-04-20 04:41:11.83 spid22s     Recovery completed for database IdentityDatabase (database ID 5) in 6 second(s) (analysis 4076 ms, redo 0 ms, undo 345 ms [system undo 0 ms, regular undo 0 ms].) ADR-enabled=0, Is primary=1, OL-Enabled=0. This is an informational message only. No user action is required.
2024-04-20 04:41:11.92 spid22s     Parallel redo is shutdown for database 'IdentityDatabase' with worker pool size [2].
2024-04-20 04:41:12.16 Server      Long Sync IO: Scheduler 1 had 1 Sync IOs in nonpreemptive mode longer than 1000 ms
2024-04-20 04:41:12.18 Server      Long Sync IO: Scheduler 3 had 1 Sync IOs in nonpreemptive mode longer than 1000 ms
2024-04-20 04:41:16.49 spid23s     [2]. Feature Status: PVS: 0. CTR: 0. ConcurrentPFSUpdate: 1. ConcurrentGAMUpdate: 1. ConcurrentSGAMUpdate: 1, CleanupUnderUserTransaction: 0. TranLevelPVS: 0
2024-04-20 04:41:16.52 spid23s     Starting up database 'tempdb'.
2024-04-20 04:41:26.15 spid23s     The tempdb database has 5 data file(s).
2024-04-20 04:41:26.42 spid34s     The Service Broker endpoint is in disabled or stopped state.
2024-04-20 04:41:26.44 spid34s     The Database Mirroring endpoint is in disabled or stopped state.
2024-04-20 04:41:26.58 spid34s     Service Broker manager has started.
2024-04-20 04:41:26.80 spid22s     Recovery is complete. This is an informational message only. No user action is required.
2024-04-20 05:43:07.73 Server      Long Sync IO: Scheduler 4 had 1 Sync IOs in nonpreemptive mode longer than 1000 ms
2024-04-20 06:36:12.00 spid11s     [DevOpsSnapshotTelemetryTask] Evaluating the background task.
2024-04-20 22:17:54.82 spid22s     Always On: The availability replica manager is going offline because SQL Server is shutting down. This is an informational message only. No user action is required.
2024-04-20 22:17:54.95 spid22s     SQL Server is terminating in response to a 'stop' request from Service Control Manager. This is an informational message only. No user action is required.
2024-04-20 22:17:55.58 spid22s     .NET Framework runtime has been stopped.
2024-04-20 22:17:56.35 spid34s     Service Broker manager has shut down.
2024-04-20 22:17:56.98 spid22s     SQL Trace was stopped due to server shutdown. Trace ID = '1'. This is an informational message only; no user action is required.
