2024-04-19 04:00:09.09 Server      Microsoft SQL Server 2022 (RTM-CU12-GDR) (KB5036343) - 16.0.4120.1 (X64) 
	Mar 18 2024 12:02:14 
	Copyright (C) 2022 Microsoft Corporation
	Developer Edition (64-bit) on Linux (Ubuntu 22.04.4 LTS) <X64>
2024-04-19 04:00:09.44 Server      UTC adjustment: 0:00
2024-04-19 04:00:09.45 Server      (c) Microsoft Corporation.
2024-04-19 04:00:09.47 Server      All rights reserved.
2024-04-19 04:00:09.48 Server      Server process ID is 488.
2024-04-19 04:00:09.50 Server      Logging SQL Server messages in file '/var/opt/mssql/log/errorlog'.
2024-04-19 04:00:09.60 Server      Registry startup parameters: 
	 -d /var/opt/mssql/data/master.mdf
	 -l /var/opt/mssql/data/mastlog.ldf
	 -e /var/opt/mssql/log/errorlog
2024-04-19 04:00:10.40 Server      SQL Server detected 1 sockets with 5 cores per socket and 5 logical processors per socket, 5 total logical processors; using 5 logical processors based on SQL Server licensing. This is an informational message; no user action is required.
2024-04-19 04:00:11.12 Server      SQL Server is starting at normal priority base (=7). This is an informational message only. No user action is required.
2024-04-19 04:00:11.66 Server      Detected 3947 MB of RAM. This is an informational message; no user action is required.
2024-04-19 04:00:11.80 Server      Using conventional memory in the memory manager.
2024-04-19 04:00:11.83 Server      Detected pause instruction latency: 0 cycles.
2024-04-19 04:00:11.92 Server      SQL Server detected the following NUMA node configuration (NUMA Node number 0, Processor Group number 0, CPU Mask 0x000000000000001f).
2024-04-19 04:00:11.96 Server      Page exclusion bitmap is enabled.
2024-04-19 04:00:15.01 Server      Buffer pool extension is not supported on Linux platform.
2024-04-19 04:00:15.07 Server      Buffer Pool: Allocating 524288 bytes for 381231 hashPages.
2024-04-19 04:00:23.86 Server      Buffer pool extension is already disabled. No action is necessary.
2024-04-19 04:00:27.12 Server      Installing Client TLS certificates to the store.
2024-04-19 04:00:28.68 Server      CPU vectorization level(s) detected:  SSE SSE2 SSE3 SSSE3 SSE41 SSE42 POPCNT
2024-04-19 04:00:31.72 Server      Successfully initialized the TLS configuration. Allowed TLS protocol versions are ['1.0 1.1 1.2']. Allowed TLS ciphers are ['ECDHE-ECDSA-AES128-GCM-SHA256:ECDHE-ECDSA-AES256-GCM-SHA384:ECDHE-RSA-AES128-GCM-SHA256:ECDHE-RSA-AES256-GCM-SHA384:ECDHE-ECDSA-AES128-SHA256:ECDHE-ECDSA-AES256-SHA384:ECDHE-ECDSA-AES256-SHA:ECDHE-ECDSA-AES128-SHA:AES256-GCM-SHA384:AES128-GCM-SHA256:AES256-SHA256:AES128-SHA256:AES256-SHA:AES128-SHA:!DHE-RSA-AES256-GCM-SHA384:!DHE-RSA-AES128-GCM-SHA256:!DHE-RSA-AES256-SHA:!DHE-RSA-AES128-SHA'].
2024-04-19 04:00:32.76 Server      Query Store settings initialized with enabled = 1, 
2024-04-19 04:00:33.29 Server      The maximum number of dedicated administrator connections for this instance is '1'
2024-04-19 04:00:33.33 Server      Node configuration: node 0: CPU mask: 0x000000000000001f:0 Active CPU mask: 0x000000000000001f:0. This message provides a description of the NUMA configuration for this computer. This is an informational message only. No user action is required.
2024-04-19 04:00:35.61 Server      Using dynamic lock allocation.  Initial allocation of 2500 Lock blocks and 5000 Lock Owner blocks per node.  This is an informational message only.  No user action is required.
2024-04-19 04:00:37.90 Server      In-Memory OLTP initialized on lowend machine.
2024-04-19 04:00:41.13 Server      CLR version v4.0.30319 loaded.
2024-04-19 04:00:41.58 Server      [INFO] Created Extended Events session 'hkenginexesession'
2024-04-19 04:00:41.68 Server      Database Instant File Initialization: enabled. For security and performance considerations see the topic 'Database Instant File Initialization' in SQL Server Books Online. This is an informational message only. No user action is required.
2024-04-19 04:00:41.89 Server      Total Log Writer threads: 2. This is an informational message; no user action is required.
2024-04-19 04:00:42.15 Server      Software Usage Metrics is disabled.
2024-04-19 04:00:42.80 spid22s     [1]. Feature Status: PVS: 0. CTR: 0. ConcurrentPFSUpdate: 1. ConcurrentGAMUpdate: 1. ConcurrentSGAMUpdate: 1, CleanupUnderUserTransaction: 0. TranLevelPVS: 0
2024-04-19 04:00:43.03 spid22s     Starting up database 'master'.
2024-04-19 04:00:50.85 spid22s     Recovery completed for database master (database ID 1) in 3 second(s) (analysis 677 ms, redo 156 ms, undo 1010 ms [system undo 0 ms, regular undo 0 ms].) ADR-enabled=0, Is primary=1, OL-Enabled=0. This is an informational message only. No user action is required.
2024-04-19 04:00:56.47 Server      Long Sync IO: Scheduler 4 had 1 Sync IOs in nonpreemptive mode longer than 1000 ms
2024-04-19 04:01:00.11 spid22s     [32762]. Feature Status: PVS: 0. CTR: 0. ConcurrentPFSUpdate: 1. ConcurrentGAMUpdate: 1. ConcurrentSGAMUpdate: 1, CleanupUnderUserTransaction: 0. TranLevelPVS: 0
2024-04-19 04:01:00.18 spid22s     Starting up database 'model_replicatedmaster'.
2024-04-19 04:01:00.22 spid23s     [32767]. Feature Status: PVS: 0. CTR: 0. ConcurrentPFSUpdate: 1. ConcurrentGAMUpdate: 1. ConcurrentSGAMUpdate: 1, CleanupUnderUserTransaction: 0. TranLevelPVS: 0
2024-04-19 04:01:00.28 spid23s     Starting up database 'mssqlsystemresource'.
2024-04-19 04:01:00.37 spid23s     The resource database build version is 16.00.4120. This is an informational message only. No user action is required.
2024-04-19 04:01:01.02 spid23s     [3]. Feature Status: PVS: 0. CTR: 0. ConcurrentPFSUpdate: 1. ConcurrentGAMUpdate: 1. ConcurrentSGAMUpdate: 1, CleanupUnderUserTransaction: 0. TranLevelPVS: 0
2024-04-19 04:01:01.06 spid23s     Starting up database 'model'.
2024-04-19 04:01:01.42 Server      Common language runtime (CLR) functionality initialized.
2024-04-19 04:01:03.65 spid30s     A self-generated certificate was successfully loaded for encryption.
2024-04-19 04:01:03.71 spid30s     Server is listening on [ 'any' <ipv6> 1433] accept sockets 1.
2024-04-19 04:01:03.73 spid30s     Server is listening on [ 'any' <ipv4> 1433] accept sockets 1.
2024-04-19 04:01:03.78 Server      Server is listening on [ ::1 <ipv6> 1434] accept sockets 1.
2024-04-19 04:01:03.79 Server      Server is listening on [ 127.0.0.1 <ipv4> 1434] accept sockets 1.
2024-04-19 04:01:03.80 Server      Dedicated admin connection support was established for listening locally on port 1434.
2024-04-19 04:01:03.91 spid30s     Server is listening on [ ::1 <ipv6> 1431] accept sockets 1.
2024-04-19 04:01:03.94 spid30s     Server is listening on [ 127.0.0.1 <ipv4> 1431] accept sockets 1.
2024-04-19 04:01:03.95 spid30s     SQL Server is now ready for client connections. This is an informational message; no user action is required.
2024-04-19 04:01:04.64 spid22s     The tail of the log for database model_replicatedmaster is being rewritten to match the new sector size of 4096 bytes.  2560 bytes at offset 99840 in file /var/opt/mssql/data/model_replicatedmaster.ldf will be written.
2024-04-19 04:01:05.54 spid22s     Converting database 'model_replicatedmaster' from version 927 to the current version 957.
2024-04-19 04:01:05.68 spid22s     Database 'model_replicatedmaster' running the upgrade step from version 927 to version 928.
2024-04-19 04:01:05.93 spid22s     Database 'model_replicatedmaster' running the upgrade step from version 928 to version 929.
2024-04-19 04:01:06.36 spid23s     Recovery completed for database model (database ID 3) in 2 second(s) (analysis 492 ms, redo 0 ms, undo 167 ms [system undo 0 ms, regular undo 0 ms].) ADR-enabled=0, Is primary=1, OL-Enabled=0. This is an informational message only. No user action is required.
2024-04-19 04:01:06.76 spid22s     Database 'model_replicatedmaster' running the upgrade step from version 929 to version 930.
2024-04-19 04:01:06.95 spid22s     Database 'model_replicatedmaster' running the upgrade step from version 930 to version 931.
2024-04-19 04:01:06.99 spid22s     Database 'model_replicatedmaster' running the upgrade step from version 931 to version 932.
2024-04-19 04:01:07.03 spid22s     Database 'model_replicatedmaster' running the upgrade step from version 932 to version 933.
2024-04-19 04:01:07.08 spid22s     Database 'model_replicatedmaster' running the upgrade step from version 933 to version 934.
2024-04-19 04:01:07.10 spid22s     Database 'model_replicatedmaster' running the upgrade step from version 934 to version 935.
2024-04-19 04:01:07.12 spid22s     Database 'model_replicatedmaster' running the upgrade step from version 935 to version 936.
2024-04-19 04:01:07.14 spid22s     Database 'model_replicatedmaster' running the upgrade step from version 936 to version 937.
2024-04-19 04:01:07.16 spid22s     Database 'model_replicatedmaster' running the upgrade step from version 937 to version 938.
2024-04-19 04:01:07.17 spid22s     Database 'model_replicatedmaster' running the upgrade step from version 938 to version 939.
2024-04-19 04:01:07.20 spid22s     Database 'model_replicatedmaster' running the upgrade step from version 939 to version 940.
2024-04-19 04:01:07.21 spid22s     Database 'model_replicatedmaster' running the upgrade step from version 940 to version 941.
2024-04-19 04:01:07.22 spid22s     Database 'model_replicatedmaster' running the upgrade step from version 941 to version 942.
2024-04-19 04:01:07.25 spid22s     Database 'model_replicatedmaster' running the upgrade step from version 942 to version 943.
2024-04-19 04:01:07.88 spid22s     Database 'model_replicatedmaster' running the upgrade step from version 943 to version 944.
2024-04-19 04:01:07.93 spid22s     Database 'model_replicatedmaster' running the upgrade step from version 944 to version 945.
2024-04-19 04:01:08.15 spid22s     Database 'model_replicatedmaster' running the upgrade step from version 945 to version 946.
2024-04-19 04:01:08.20 spid22s     Database 'model_replicatedmaster' running the upgrade step from version 946 to version 947.
2024-04-19 04:01:08.26 spid22s     Database 'model_replicatedmaster' running the upgrade step from version 947 to version 948.
2024-04-19 04:01:08.31 spid22s     Database 'model_replicatedmaster' running the upgrade step from version 948 to version 949.
2024-04-19 04:01:08.84 spid22s     Database 'model_replicatedmaster' running the upgrade step from version 949 to version 950.
2024-04-19 04:01:09.51 spid22s     Database 'model_replicatedmaster' running the upgrade step from version 950 to version 951.
2024-04-19 04:01:13.05 spid22s     Database 'model_replicatedmaster' running the upgrade step from version 951 to version 952.
2024-04-19 04:01:13.14 spid22s     Database 'model_replicatedmaster' running the upgrade step from version 952 to version 953.
2024-04-19 04:01:13.22 spid22s     Database 'model_replicatedmaster' running the upgrade step from version 953 to version 954.
2024-04-19 04:01:13.28 spid22s     Database 'model_replicatedmaster' running the upgrade step from version 954 to version 955.
2024-04-19 04:01:13.33 spid22s     Database 'model_replicatedmaster' running the upgrade step from version 955 to version 956.
2024-04-19 04:01:14.68 spid22s     Database 'model_replicatedmaster' running the upgrade step from version 956 to version 957.
2024-04-19 04:01:15.50 Server      External governance manager initialized
2024-04-19 04:01:17.01 Server      Long Sync IO: Scheduler 4 had 1 Sync IOs in nonpreemptive mode longer than 1000 ms
2024-04-19 04:01:17.37 spid22s     [32761]. Feature Status: PVS: 0. CTR: 0. ConcurrentPFSUpdate: 1. ConcurrentGAMUpdate: 1. ConcurrentSGAMUpdate: 1, CleanupUnderUserTransaction: 0. TranLevelPVS: 0
2024-04-19 04:01:17.41 spid22s     Starting up database 'model_msdb'.
2024-04-19 04:01:22.37 spid22s     Converting database 'model_msdb' from version 927 to the current version 957.
2024-04-19 04:01:22.42 spid22s     Database 'model_msdb' running the upgrade step from version 927 to version 928.
2024-04-19 04:01:22.49 spid22s     Database 'model_msdb' running the upgrade step from version 928 to version 929.
2024-04-19 04:01:23.64 spid22s     Database 'model_msdb' running the upgrade step from version 929 to version 930.
2024-04-19 04:01:23.78 spid22s     Database 'model_msdb' running the upgrade step from version 930 to version 931.
2024-04-19 04:01:23.86 spid22s     Database 'model_msdb' running the upgrade step from version 931 to version 932.
2024-04-19 04:01:23.89 spid22s     Database 'model_msdb' running the upgrade step from version 932 to version 933.
2024-04-19 04:01:24.03 spid22s     Database 'model_msdb' running the upgrade step from version 933 to version 934.
2024-04-19 04:01:24.11 spid22s     Database 'model_msdb' running the upgrade step from version 934 to version 935.
2024-04-19 04:01:24.14 spid22s     Database 'model_msdb' running the upgrade step from version 935 to version 936.
2024-04-19 04:01:24.16 spid22s     Database 'model_msdb' running the upgrade step from version 936 to version 937.
2024-04-19 04:01:24.17 spid22s     Database 'model_msdb' running the upgrade step from version 937 to version 938.
2024-04-19 04:01:24.18 spid22s     Database 'model_msdb' running the upgrade step from version 938 to version 939.
2024-04-19 04:01:24.21 spid22s     Database 'model_msdb' running the upgrade step from version 939 to version 940.
2024-04-19 04:01:24.23 spid22s     Database 'model_msdb' running the upgrade step from version 940 to version 941.
2024-04-19 04:01:24.25 spid22s     Database 'model_msdb' running the upgrade step from version 941 to version 942.
2024-04-19 04:01:24.27 spid22s     Database 'model_msdb' running the upgrade step from version 942 to version 943.
2024-04-19 04:01:24.57 spid22s     Database 'model_msdb' running the upgrade step from version 943 to version 944.
2024-04-19 04:01:24.61 spid22s     Database 'model_msdb' running the upgrade step from version 944 to version 945.
2024-04-19 04:01:24.79 spid22s     Database 'model_msdb' running the upgrade step from version 945 to version 946.
2024-04-19 04:01:24.81 spid22s     Database 'model_msdb' running the upgrade step from version 946 to version 947.
2024-04-19 04:01:24.84 spid22s     Database 'model_msdb' running the upgrade step from version 947 to version 948.
2024-04-19 04:01:24.89 spid22s     Database 'model_msdb' running the upgrade step from version 948 to version 949.
2024-04-19 04:01:25.05 spid22s     Database 'model_msdb' running the upgrade step from version 949 to version 950.
2024-04-19 04:01:25.11 spid22s     Database 'model_msdb' running the upgrade step from version 950 to version 951.
2024-04-19 04:01:25.33 spid22s     Database 'model_msdb' running the upgrade step from version 951 to version 952.
2024-04-19 04:01:25.37 spid22s     Database 'model_msdb' running the upgrade step from version 952 to version 953.
2024-04-19 04:01:25.47 spid22s     Database 'model_msdb' running the upgrade step from version 953 to version 954.
2024-04-19 04:01:25.53 spid22s     Database 'model_msdb' running the upgrade step from version 954 to version 955.
2024-04-19 04:01:25.60 spid22s     Database 'model_msdb' running the upgrade step from version 955 to version 956.
2024-04-19 04:01:26.21 spid22s     Database 'model_msdb' running the upgrade step from version 956 to version 957.
2024-04-19 04:01:27.38 spid22s     Resource governor reconfiguration succeeded.
2024-04-19 04:01:27.41 spid22s     SQL Server Audit is starting the audits. This is an informational message. No user action is required.
2024-04-19 04:01:27.54 spid40s     Attribute synchronization initialized
2024-04-19 04:01:27.56 spid40s     Attribute synchronization manager initialized
2024-04-19 04:01:27.59 spid22s     SQL Server Audit has started the audits. This is an informational message. No user action is required.
2024-04-19 04:01:27.71 spid22s     XE session 'system_health' started.
2024-04-19 04:01:28.05 spid22s     XE session 'telemetry_xevents' started.
2024-04-19 04:01:28.16 spid22s     SQL Trace ID 1 was started by login "sa".
2024-04-19 04:01:28.21 spid22s     Server name is 'c59b69635422'. This is an informational message only. No user action is required.
2024-04-19 04:01:28.31 spid23s     Clearing tempdb database.
2024-04-19 04:01:28.31 spid84s     Always On: The availability replica manager is starting. This is an informational message only. No user action is required.
2024-04-19 04:01:28.35 spid84s     Always On: The availability replica manager is waiting for the instance of SQL Server to allow client connections. This is an informational message only. No user action is required.
2024-04-19 04:01:28.35 spid87s     [5]. Feature Status: PVS: 0. CTR: 0. ConcurrentPFSUpdate: 1. ConcurrentGAMUpdate: 1. ConcurrentSGAMUpdate: 1, CleanupUnderUserTransaction: 0. TranLevelPVS: 0
2024-04-19 04:01:28.35 spid86s     [4]. Feature Status: PVS: 0. CTR: 0. ConcurrentPFSUpdate: 1. ConcurrentGAMUpdate: 1. ConcurrentSGAMUpdate: 1, CleanupUnderUserTransaction: 0. TranLevelPVS: 0
2024-04-19 04:01:28.37 spid87s     Starting up database 'IdentityDatabase'.
2024-04-19 04:01:28.38 spid86s     Starting up database 'msdb'.
2024-04-19 04:01:28.39 spid87s     RemoveStaleDbEntries: Cleanup of stale DB entries called for database ID: [5]
2024-04-19 04:01:28.39 spid87s     RemoveStaleDbEntries: Cleanup of stale DB entries skipped because master db is not memory optimized. DbId: 5.
2024-04-19 04:01:33.82 spid20s     Using 'dbghelp.dll' version '4.0.5'
2024-04-19 04:01:35.50 spid87s     Parallel redo is started for database 'IdentityDatabase' with worker pool size [2].
2024-04-19 04:01:37.23 spid22s     Recovery completed for database IdentityDatabase (database ID 5) in 2 second(s) (analysis 551 ms, redo 0 ms, undo 951 ms [system undo 0 ms, regular undo 0 ms].) ADR-enabled=0, Is primary=1, OL-Enabled=0. This is an informational message only. No user action is required.
2024-04-19 04:01:37.42 spid22s     Parallel redo is shutdown for database 'IdentityDatabase' with worker pool size [2].
2024-04-19 04:01:37.55 spid22s     Recovery completed for database msdb (database ID 4) in 3 second(s) (analysis 44 ms, redo 9 ms, undo 1622 ms [system undo 0 ms, regular undo 0 ms].) ADR-enabled=0, Is primary=1, OL-Enabled=0. This is an informational message only. No user action is required.
2024-04-19 04:01:45.47 spid23s     [2]. Feature Status: PVS: 0. CTR: 0. ConcurrentPFSUpdate: 1. ConcurrentGAMUpdate: 1. ConcurrentSGAMUpdate: 1, CleanupUnderUserTransaction: 0. TranLevelPVS: 0
2024-04-19 04:01:45.52 spid23s     Starting up database 'tempdb'.
2024-04-19 04:01:57.10 spid23s     The tempdb database has 5 data file(s).
2024-04-19 04:01:57.58 spid34s     The Service Broker endpoint is in disabled or stopped state.
2024-04-19 04:01:57.63 spid34s     The Database Mirroring endpoint is in disabled or stopped state.
2024-04-19 04:01:58.14 spid34s     Service Broker manager has started.
2024-04-19 04:01:58.33 spid22s     Recovery is complete. This is an informational message only. No user action is required.
2024-04-19 04:05:04.61 spid51      XE session 'telemetry_xevents' stopping.
2024-04-19 04:05:04.73 spid51      XE session 'telemetry_xevents' started.
2024-04-19 04:06:39.39 spid51      Attempting to load library 'xplog70.dll' into memory. This is an informational message only. No user action is required.
2024-04-19 04:06:39.75 spid51      Using 'xplog70.dll' version '2022.160.4120' to execute extended stored procedure 'xp_msver'. This is an informational message only; no user action is required.
2024-04-19 04:26:24.81 spid51      XE session 'telemetry_xevents' stopping.
2024-04-19 04:26:25.25 spid51      XE session 'telemetry_xevents' started.
2024-04-19 05:16:15.66 spid8s      [DevOpsSnapshotTelemetryTask] Evaluating the background task.
2024-04-19 06:00:31.24 spid51      XE session 'telemetry_xevents' stopping.
2024-04-19 06:00:31.48 spid51      XE session 'telemetry_xevents' started.
2024-04-19 07:00:40.58 spid51      XE session 'telemetry_xevents' stopping.
2024-04-19 07:00:40.71 spid51      XE session 'telemetry_xevents' started.
2024-04-19 08:00:50.33 spid51      XE session 'telemetry_xevents' stopping.
2024-04-19 08:00:50.47 spid51      XE session 'telemetry_xevents' started.
2024-04-19 09:01:00.46 spid51      XE session 'telemetry_xevents' stopping.
2024-04-19 09:01:00.66 spid51      XE session 'telemetry_xevents' started.
2024-04-19 10:17:16.29 spid51      XE session 'telemetry_xevents' stopping.
2024-04-19 10:17:16.47 spid51      XE session 'telemetry_xevents' started.
2024-04-19 11:44:11.03 spid51      XE session 'telemetry_xevents' stopping.
2024-04-19 11:44:11.39 spid51      XE session 'telemetry_xevents' started.
2024-04-19 15:18:02.28 spid51      XE session 'telemetry_xevents' stopping.
2024-04-19 15:18:02.66 spid51      XE session 'telemetry_xevents' started.
2024-04-19 16:18:28.83 spid51      XE session 'telemetry_xevents' stopping.
2024-04-19 16:18:29.07 spid51      XE session 'telemetry_xevents' started.
2024-04-19 17:18:50.25 spid51      XE session 'telemetry_xevents' stopping.
2024-04-19 17:18:50.60 spid51      XE session 'telemetry_xevents' started.
2024-04-19 18:12:45.57 Server      Long Sync IO: Scheduler 3 had 1 Sync IOs in nonpreemptive mode longer than 1000 ms
2024-04-19 18:13:09.25 Server      Long Sync IO: Scheduler 3 had 1 Sync IOs in nonpreemptive mode longer than 1000 ms
2024-04-19 18:24:07.50 spid52      XE session 'telemetry_xevents' stopping.
2024-04-19 18:24:09.43 spid52      XE session 'telemetry_xevents' started.
2024-04-19 19:26:07.01 spid51      XE session 'telemetry_xevents' stopping.
2024-04-19 19:26:07.27 spid51      XE session 'telemetry_xevents' started.
2024-04-19 20:26:44.10 spid51      XE session 'telemetry_xevents' stopping.
2024-04-19 20:26:45.15 spid51      XE session 'telemetry_xevents' started.
2024-04-19 21:27:11.42 spid51      XE session 'telemetry_xevents' stopping.
2024-04-19 21:27:11.88 spid51      XE session 'telemetry_xevents' started.
2024-04-19 22:28:28.20 spid51      XE session 'telemetry_xevents' stopping.
2024-04-19 22:28:28.88 spid51      XE session 'telemetry_xevents' started.
2024-04-19 23:29:45.40 spid51      XE session 'telemetry_xevents' stopping.
2024-04-19 23:29:49.89 spid51      XE session 'telemetry_xevents' started.
2024-04-20 00:09:43.74 Server      Long Sync IO: Scheduler 4 had 1 Sync IOs in nonpreemptive mode longer than 1000 ms
2024-04-20 00:34:48.67 spid52      XE session 'telemetry_xevents' stopping.
2024-04-20 00:34:48.97 spid52      XE session 'telemetry_xevents' started.
2024-04-20 01:35:20.33 spid51      XE session 'telemetry_xevents' stopping.
2024-04-20 01:35:20.62 spid51      XE session 'telemetry_xevents' started.
2024-04-20 02:48:17.42 spid22s     Always On: The availability replica manager is going offline because SQL Server is shutting down. This is an informational message only. No user action is required.
2024-04-20 02:48:17.48 spid22s     SQL Server is terminating in response to a 'stop' request from Service Control Manager. This is an informational message only. No user action is required.
2024-04-20 02:48:17.74 spid22s     .NET Framework runtime has been stopped.
2024-04-20 02:48:18.82 spid34s     Service Broker manager has shut down.
2024-04-20 02:48:19.11 spid22s     SQL Trace was stopped due to server shutdown. Trace ID = '1'. This is an informational message only; no user action is required.
