2024-04-19 03:45:25.62 Server      Microsoft SQL Server 2022 (RTM-CU12-GDR) (KB5036343) - 16.0.4120.1 (X64) 
	Mar 18 2024 12:02:14 
	Copyright (C) 2022 Microsoft Corporation
	Developer Edition (64-bit) on Linux (Ubuntu 22.04.4 LTS) <X64>
2024-04-19 03:45:25.62 Server      UTC adjustment: 0:00
2024-04-19 03:45:25.63 Server      (c) Microsoft Corporation.
2024-04-19 03:45:25.63 Server      All rights reserved.
2024-04-19 03:45:25.63 Server      Server process ID is 472.
2024-04-19 03:45:25.63 Server      Logging SQL Server messages in file '/var/opt/mssql/log/errorlog'.
2024-04-19 03:45:25.64 Server      Registry startup parameters: 
	 -d /var/opt/mssql/data/master.mdf
	 -l /var/opt/mssql/data/mastlog.ldf
	 -e /var/opt/mssql/log/errorlog
2024-04-19 03:45:25.66 Server      SQL Server detected 1 sockets with 5 cores per socket and 5 logical processors per socket, 5 total logical processors; using 5 logical processors based on SQL Server licensing. This is an informational message; no user action is required.
2024-04-19 03:45:25.67 Server      SQL Server is starting at normal priority base (=7). This is an informational message only. No user action is required.
2024-04-19 03:45:25.68 Server      Detected 3947 MB of RAM. This is an informational message; no user action is required.
2024-04-19 03:45:25.69 Server      Using conventional memory in the memory manager.
2024-04-19 03:45:25.69 Server      Detected pause instruction latency: 0 cycles.
2024-04-19 03:45:25.70 Server      SQL Server detected the following NUMA node configuration (NUMA Node number 0, Processor Group number 0, CPU Mask 0x000000000000001f).
2024-04-19 03:45:25.71 Server      Page exclusion bitmap is enabled.
2024-04-19 03:45:25.79 Server      Buffer pool extension is not supported on Linux platform.
2024-04-19 03:45:25.80 Server      Buffer Pool: Allocating 524288 bytes for 390901 hashPages.
2024-04-19 03:45:26.21 Server      Buffer pool extension is already disabled. No action is necessary.
2024-04-19 03:45:27.05 Server      Installing Client TLS certificates to the store.
2024-04-19 03:45:27.12 Server      CPU vectorization level(s) detected:  SSE SSE2 SSE3 SSSE3 SSE41 SSE42 POPCNT
2024-04-19 03:45:27.54 Server      Successfully initialized the TLS configuration. Allowed TLS protocol versions are ['1.0 1.1 1.2']. Allowed TLS ciphers are ['ECDHE-ECDSA-AES128-GCM-SHA256:ECDHE-ECDSA-AES256-GCM-SHA384:ECDHE-RSA-AES128-GCM-SHA256:ECDHE-RSA-AES256-GCM-SHA384:ECDHE-ECDSA-AES128-SHA256:ECDHE-ECDSA-AES256-SHA384:ECDHE-ECDSA-AES256-SHA:ECDHE-ECDSA-AES128-SHA:AES256-GCM-SHA384:AES128-GCM-SHA256:AES256-SHA256:AES128-SHA256:AES256-SHA:AES128-SHA:!DHE-RSA-AES256-GCM-SHA384:!DHE-RSA-AES128-GCM-SHA256:!DHE-RSA-AES256-SHA:!DHE-RSA-AES128-SHA'].
2024-04-19 03:45:27.71 Server      Query Store settings initialized with enabled = 1, 
2024-04-19 03:45:27.78 Server      The maximum number of dedicated administrator connections for this instance is '1'
2024-04-19 03:45:27.80 Server      Node configuration: node 0: CPU mask: 0x000000000000001f:0 Active CPU mask: 0x000000000000001f:0. This message provides a description of the NUMA configuration for this computer. This is an informational message only. No user action is required.
2024-04-19 03:45:27.85 Server      Using dynamic lock allocation.  Initial allocation of 2500 Lock blocks and 5000 Lock Owner blocks per node.  This is an informational message only.  No user action is required.
2024-04-19 03:45:27.95 Server      In-Memory OLTP initialized on lowend machine.
2024-04-19 03:45:28.22 Server      CLR version v4.0.30319 loaded.
2024-04-19 03:45:28.25 Server      [INFO] Created Extended Events session 'hkenginexesession'
2024-04-19 03:45:28.26 Server      Database Instant File Initialization: enabled. For security and performance considerations see the topic 'Database Instant File Initialization' in SQL Server Books Online. This is an informational message only. No user action is required.
2024-04-19 03:45:28.30 Server      Total Log Writer threads: 2. This is an informational message; no user action is required.
2024-04-19 03:45:28.34 Server      Software Usage Metrics is disabled.
2024-04-19 03:45:28.42 spid22s     [1]. Feature Status: PVS: 0. CTR: 0. ConcurrentPFSUpdate: 1. ConcurrentGAMUpdate: 1. ConcurrentSGAMUpdate: 1, CleanupUnderUserTransaction: 0. TranLevelPVS: 0
2024-04-19 03:45:28.46 spid22s     Starting up database 'master'.
2024-04-19 03:45:31.39 spid22s     [32762]. Feature Status: PVS: 0. CTR: 0. ConcurrentPFSUpdate: 1. ConcurrentGAMUpdate: 1. ConcurrentSGAMUpdate: 1, CleanupUnderUserTransaction: 0. TranLevelPVS: 0
2024-04-19 03:45:31.42 spid22s     Starting up database 'model_replicatedmaster'.
2024-04-19 03:45:31.43 spid23s     [32767]. Feature Status: PVS: 0. CTR: 0. ConcurrentPFSUpdate: 1. ConcurrentGAMUpdate: 1. ConcurrentSGAMUpdate: 1, CleanupUnderUserTransaction: 0. TranLevelPVS: 0
2024-04-19 03:45:31.44 spid23s     Starting up database 'mssqlsystemresource'.
2024-04-19 03:45:31.48 spid23s     The resource database build version is 16.00.4120. This is an informational message only. No user action is required.
2024-04-19 03:45:31.99 spid23s     [3]. Feature Status: PVS: 0. CTR: 0. ConcurrentPFSUpdate: 1. ConcurrentGAMUpdate: 1. ConcurrentSGAMUpdate: 1, CleanupUnderUserTransaction: 0. TranLevelPVS: 0
2024-04-19 03:45:32.06 spid23s     Starting up database 'model'.
2024-04-19 03:45:32.48 Server      Common language runtime (CLR) functionality initialized.
2024-04-19 03:45:33.49 spid29s     A self-generated certificate was successfully loaded for encryption.
2024-04-19 03:45:33.52 spid29s     Server is listening on [ 'any' <ipv6> 1433] accept sockets 1.
2024-04-19 03:45:33.54 spid29s     Server is listening on [ 'any' <ipv4> 1433] accept sockets 1.
2024-04-19 03:45:33.58 Server      Server is listening on [ ::1 <ipv6> 1434] accept sockets 1.
2024-04-19 03:45:33.59 Server      Server is listening on [ 127.0.0.1 <ipv4> 1434] accept sockets 1.
2024-04-19 03:45:33.61 Server      Dedicated admin connection support was established for listening locally on port 1434.
2024-04-19 03:45:33.70 spid29s     Server is listening on [ ::1 <ipv6> 1431] accept sockets 1.
2024-04-19 03:45:33.78 spid29s     Server is listening on [ 127.0.0.1 <ipv4> 1431] accept sockets 1.
2024-04-19 03:45:33.80 spid29s     SQL Server is now ready for client connections. This is an informational message; no user action is required.
2024-04-19 03:45:34.40 spid22s     The tail of the log for database model_replicatedmaster is being rewritten to match the new sector size of 4096 bytes.  2560 bytes at offset 99840 in file /var/opt/mssql/data/model_replicatedmaster.ldf will be written.
2024-04-19 03:45:35.22 spid22s     Recovery completed for database model_replicatedmaster (database ID 32762) in 2 second(s) (analysis 167 ms, redo 6 ms, undo 299 ms [system undo 0 ms, regular undo 0 ms].) ADR-enabled=0, Is primary=1, OL-Enabled=0. This is an informational message only. No user action is required.
2024-04-19 03:45:35.53 spid22s     Converting database 'model_replicatedmaster' from version 927 to the current version 957.
2024-04-19 03:45:35.57 spid22s     Database 'model_replicatedmaster' running the upgrade step from version 927 to version 928.
2024-04-19 03:45:35.65 spid22s     Database 'model_replicatedmaster' running the upgrade step from version 928 to version 929.
2024-04-19 03:45:36.32 spid23s     Recovery completed for database model (database ID 3) in 2 second(s) (analysis 681 ms, redo 0 ms, undo 250 ms [system undo 0 ms, regular undo 0 ms].) ADR-enabled=0, Is primary=1, OL-Enabled=0. This is an informational message only. No user action is required.
2024-04-19 03:45:36.60 spid22s     Database 'model_replicatedmaster' running the upgrade step from version 929 to version 930.
2024-04-19 03:45:36.71 spid22s     Database 'model_replicatedmaster' running the upgrade step from version 930 to version 931.
2024-04-19 03:45:36.72 spid22s     Database 'model_replicatedmaster' running the upgrade step from version 931 to version 932.
2024-04-19 03:45:36.73 spid22s     Database 'model_replicatedmaster' running the upgrade step from version 932 to version 933.
2024-04-19 03:45:36.74 spid22s     Database 'model_replicatedmaster' running the upgrade step from version 933 to version 934.
2024-04-19 03:45:36.77 spid22s     Database 'model_replicatedmaster' running the upgrade step from version 934 to version 935.
2024-04-19 03:45:36.79 spid22s     Database 'model_replicatedmaster' running the upgrade step from version 935 to version 936.
2024-04-19 03:45:36.80 spid22s     Database 'model_replicatedmaster' running the upgrade step from version 936 to version 937.
2024-04-19 03:45:36.80 spid22s     Database 'model_replicatedmaster' running the upgrade step from version 937 to version 938.
2024-04-19 03:45:36.81 spid22s     Database 'model_replicatedmaster' running the upgrade step from version 938 to version 939.
2024-04-19 03:45:36.81 spid22s     Database 'model_replicatedmaster' running the upgrade step from version 939 to version 940.
2024-04-19 03:45:36.82 spid22s     Database 'model_replicatedmaster' running the upgrade step from version 940 to version 941.
2024-04-19 03:45:36.82 spid22s     Database 'model_replicatedmaster' running the upgrade step from version 941 to version 942.
2024-04-19 03:45:36.83 spid22s     Database 'model_replicatedmaster' running the upgrade step from version 942 to version 943.
2024-04-19 03:45:37.01 spid22s     Database 'model_replicatedmaster' running the upgrade step from version 943 to version 944.
2024-04-19 03:45:37.01 spid22s     Database 'model_replicatedmaster' running the upgrade step from version 944 to version 945.
2024-04-19 03:45:37.05 spid22s     Database 'model_replicatedmaster' running the upgrade step from version 945 to version 946.
2024-04-19 03:45:37.07 spid22s     Database 'model_replicatedmaster' running the upgrade step from version 946 to version 947.
2024-04-19 03:45:37.08 spid22s     Database 'model_replicatedmaster' running the upgrade step from version 947 to version 948.
2024-04-19 03:45:37.09 spid22s     Database 'model_replicatedmaster' running the upgrade step from version 948 to version 949.
2024-04-19 03:45:37.12 spid22s     Database 'model_replicatedmaster' running the upgrade step from version 949 to version 950.
2024-04-19 03:45:37.13 spid22s     Database 'model_replicatedmaster' running the upgrade step from version 950 to version 951.
2024-04-19 03:45:37.25 spid22s     Database 'model_replicatedmaster' running the upgrade step from version 951 to version 952.
2024-04-19 03:45:37.27 spid22s     Database 'model_replicatedmaster' running the upgrade step from version 952 to version 953.
2024-04-19 03:45:37.28 spid22s     Database 'model_replicatedmaster' running the upgrade step from version 953 to version 954.
2024-04-19 03:45:37.29 spid22s     Database 'model_replicatedmaster' running the upgrade step from version 954 to version 955.
2024-04-19 03:45:37.30 spid22s     Database 'model_replicatedmaster' running the upgrade step from version 955 to version 956.
2024-04-19 03:45:37.49 Server      External governance manager initialized
2024-04-19 03:45:37.53 spid22s     Database 'model_replicatedmaster' running the upgrade step from version 956 to version 957.
2024-04-19 03:45:37.78 spid22s     [32761]. Feature Status: PVS: 0. CTR: 0. ConcurrentPFSUpdate: 1. ConcurrentGAMUpdate: 1. ConcurrentSGAMUpdate: 1, CleanupUnderUserTransaction: 0. TranLevelPVS: 0
2024-04-19 03:45:37.78 spid22s     Starting up database 'model_msdb'.
2024-04-19 03:45:40.10 spid22s     Converting database 'model_msdb' from version 927 to the current version 957.
2024-04-19 03:45:40.10 spid22s     Database 'model_msdb' running the upgrade step from version 927 to version 928.
2024-04-19 03:45:40.11 spid22s     Database 'model_msdb' running the upgrade step from version 928 to version 929.
2024-04-19 03:45:40.32 spid22s     Database 'model_msdb' running the upgrade step from version 929 to version 930.
2024-04-19 03:45:40.37 spid22s     Database 'model_msdb' running the upgrade step from version 930 to version 931.
2024-04-19 03:45:40.40 spid22s     Database 'model_msdb' running the upgrade step from version 931 to version 932.
2024-04-19 03:45:40.41 spid22s     Database 'model_msdb' running the upgrade step from version 932 to version 933.
2024-04-19 03:45:40.43 spid22s     Database 'model_msdb' running the upgrade step from version 933 to version 934.
2024-04-19 03:45:40.43 spid22s     Database 'model_msdb' running the upgrade step from version 934 to version 935.
2024-04-19 03:45:40.44 spid22s     Database 'model_msdb' running the upgrade step from version 935 to version 936.
2024-04-19 03:45:40.44 spid22s     Database 'model_msdb' running the upgrade step from version 936 to version 937.
2024-04-19 03:45:40.45 spid22s     Database 'model_msdb' running the upgrade step from version 937 to version 938.
2024-04-19 03:45:40.47 spid22s     Database 'model_msdb' running the upgrade step from version 938 to version 939.
2024-04-19 03:45:40.48 spid22s     Database 'model_msdb' running the upgrade step from version 939 to version 940.
2024-04-19 03:45:40.49 spid22s     Database 'model_msdb' running the upgrade step from version 940 to version 941.
2024-04-19 03:45:40.50 spid22s     Database 'model_msdb' running the upgrade step from version 941 to version 942.
2024-04-19 03:45:40.50 spid22s     Database 'model_msdb' running the upgrade step from version 942 to version 943.
2024-04-19 03:45:40.55 spid22s     Database 'model_msdb' running the upgrade step from version 943 to version 944.
2024-04-19 03:45:40.57 spid22s     Database 'model_msdb' running the upgrade step from version 944 to version 945.
2024-04-19 03:45:40.61 spid22s     Database 'model_msdb' running the upgrade step from version 945 to version 946.
2024-04-19 03:45:40.61 spid22s     Database 'model_msdb' running the upgrade step from version 946 to version 947.
2024-04-19 03:45:40.62 spid22s     Database 'model_msdb' running the upgrade step from version 947 to version 948.
2024-04-19 03:45:40.62 spid22s     Database 'model_msdb' running the upgrade step from version 948 to version 949.
2024-04-19 03:45:40.63 spid22s     Database 'model_msdb' running the upgrade step from version 949 to version 950.
2024-04-19 03:45:40.64 spid22s     Database 'model_msdb' running the upgrade step from version 950 to version 951.
2024-04-19 03:45:40.69 spid22s     Database 'model_msdb' running the upgrade step from version 951 to version 952.
2024-04-19 03:45:40.69 spid22s     Database 'model_msdb' running the upgrade step from version 952 to version 953.
2024-04-19 03:45:40.71 spid22s     Database 'model_msdb' running the upgrade step from version 953 to version 954.
2024-04-19 03:45:40.73 spid22s     Database 'model_msdb' running the upgrade step from version 954 to version 955.
2024-04-19 03:45:40.75 spid22s     Database 'model_msdb' running the upgrade step from version 955 to version 956.
2024-04-19 03:45:40.86 spid22s     Database 'model_msdb' running the upgrade step from version 956 to version 957.
2024-04-19 03:45:41.02 spid22s     Resource governor reconfiguration succeeded.
2024-04-19 03:45:41.03 spid22s     SQL Server Audit is starting the audits. This is an informational message. No user action is required.
2024-04-19 03:45:41.07 spid34s     Attribute synchronization initialized
2024-04-19 03:45:41.07 spid34s     Attribute synchronization manager initialized
2024-04-19 03:45:41.11 spid22s     SQL Server Audit has started the audits. This is an informational message. No user action is required.
2024-04-19 03:45:41.15 spid22s     XE session 'system_health' started.
2024-04-19 03:45:41.34 spid22s     XE session 'telemetry_xevents' started.
2024-04-19 03:45:41.41 spid22s     SQL Trace ID 1 was started by login "sa".
2024-04-19 03:45:41.48 spid22s     Server name is 'c59b69635422'. This is an informational message only. No user action is required.
2024-04-19 03:45:41.55 spid23s     Clearing tempdb database.
2024-04-19 03:45:41.55 spid61s     Always On: The availability replica manager is starting. This is an informational message only. No user action is required.
2024-04-19 03:45:41.56 spid62s     [5]. Feature Status: PVS: 0. CTR: 0. ConcurrentPFSUpdate: 1. ConcurrentGAMUpdate: 1. ConcurrentSGAMUpdate: 1, CleanupUnderUserTransaction: 0. TranLevelPVS: 0
2024-04-19 03:45:41.56 spid63s     [4]. Feature Status: PVS: 0. CTR: 0. ConcurrentPFSUpdate: 1. ConcurrentGAMUpdate: 1. ConcurrentSGAMUpdate: 1, CleanupUnderUserTransaction: 0. TranLevelPVS: 0
2024-04-19 03:45:41.57 spid61s     Always On: The availability replica manager is waiting for the instance of SQL Server to allow client connections. This is an informational message only. No user action is required.
2024-04-19 03:45:41.57 spid62s     Starting up database 'IdentityDatabase'.
2024-04-19 03:45:41.57 spid63s     Starting up database 'msdb'.
2024-04-19 03:45:41.58 spid62s     RemoveStaleDbEntries: Cleanup of stale DB entries called for database ID: [5]
2024-04-19 03:45:41.58 spid62s     RemoveStaleDbEntries: Cleanup of stale DB entries skipped because master db is not memory optimized. DbId: 5.
2024-04-19 03:45:43.48 spid20s     Using 'dbghelp.dll' version '4.0.5'
2024-04-19 03:45:43.86 spid62s     Parallel redo is started for database 'IdentityDatabase' with worker pool size [2].
2024-04-19 03:45:44.63 spid22s     Parallel redo is shutdown for database 'IdentityDatabase' with worker pool size [2].
2024-04-19 03:45:45.94 spid23s     [2]. Feature Status: PVS: 0. CTR: 0. ConcurrentPFSUpdate: 1. ConcurrentGAMUpdate: 1. ConcurrentSGAMUpdate: 1, CleanupUnderUserTransaction: 0. TranLevelPVS: 0
2024-04-19 03:45:45.95 spid23s     Starting up database 'tempdb'.
2024-04-19 03:45:48.08 spid23s     The tempdb database has 5 data file(s).
2024-04-19 03:45:48.12 spid61s     The Service Broker endpoint is in disabled or stopped state.
2024-04-19 03:45:48.13 spid61s     The Database Mirroring endpoint is in disabled or stopped state.
2024-04-19 03:45:48.16 spid61s     Service Broker manager has started.
2024-04-19 03:45:48.19 spid22s     Recovery is complete. This is an informational message only. No user action is required.
2024-04-19 03:48:56.09 spid22s     Always On: The availability replica manager is going offline because SQL Server is shutting down. This is an informational message only. No user action is required.
2024-04-19 03:48:56.19 spid22s     SQL Server is terminating in response to a 'stop' request from Service Control Manager. This is an informational message only. No user action is required.
2024-04-19 03:48:56.35 spid22s     .NET Framework runtime has been stopped.
2024-04-19 03:48:56.54 spid61s     Service Broker manager has shut down.
2024-04-19 03:48:57.15 spid22s     SQL Trace was stopped due to server shutdown. Trace ID = '1'. This is an informational message only; no user action is required.
