2024-04-19 03:03:01.43 Server      Microsoft SQL Server 2022 (RTM-CU12-GDR) (KB5036343) - 16.0.4120.1 (X64) 
	Mar 18 2024 12:02:14 
	Copyright (C) 2022 Microsoft Corporation
	Developer Edition (64-bit) on Linux (Ubuntu 22.04.4 LTS) <X64>
2024-04-19 03:03:01.44 Server      UTC adjustment: 0:00
2024-04-19 03:03:01.45 Server      (c) Microsoft Corporation.
2024-04-19 03:03:01.45 Server      All rights reserved.
2024-04-19 03:03:01.45 Server      Server process ID is 464.
2024-04-19 03:03:01.46 Server      Logging SQL Server messages in file '/var/opt/mssql/log/errorlog'.
2024-04-19 03:03:01.46 Server      Registry startup parameters: 
	 -d /var/opt/mssql/data/master.mdf
	 -l /var/opt/mssql/data/mastlog.ldf
	 -e /var/opt/mssql/log/errorlog
2024-04-19 03:03:01.51 Server      SQL Server detected 1 sockets with 5 cores per socket and 5 logical processors per socket, 5 total logical processors; using 5 logical processors based on SQL Server licensing. This is an informational message; no user action is required.
2024-04-19 03:03:01.52 Server      SQL Server is starting at normal priority base (=7). This is an informational message only. No user action is required.
2024-04-19 03:03:01.53 Server      Detected 3947 MB of RAM. This is an informational message; no user action is required.
2024-04-19 03:03:01.54 Server      Using conventional memory in the memory manager.
2024-04-19 03:03:01.55 Server      Detected pause instruction latency: 0 cycles.
2024-04-19 03:03:01.56 Server      SQL Server detected the following NUMA node configuration (NUMA Node number 0, Processor Group number 0, CPU Mask 0x000000000000001f).
2024-04-19 03:03:01.57 Server      Page exclusion bitmap is enabled.
2024-04-19 03:03:01.76 Server      Buffer pool extension is not supported on Linux platform.
2024-04-19 03:03:01.82 Server      Buffer Pool: Allocating 524288 bytes for 354935 hashPages.
2024-04-19 03:03:03.43 Server      Buffer pool extension is already disabled. No action is necessary.
2024-04-19 03:03:14.30 Server      Installing Client TLS certificates to the store.
2024-04-19 03:03:15.39 Server      CPU vectorization level(s) detected:  SSE SSE2 SSE3 SSSE3 SSE41 SSE42 POPCNT
2024-04-19 03:03:28.66 Server      Successfully initialized the TLS configuration. Allowed TLS protocol versions are ['1.0 1.1 1.2']. Allowed TLS ciphers are ['ECDHE-ECDSA-AES128-GCM-SHA256:ECDHE-ECDSA-AES256-GCM-SHA384:ECDHE-RSA-AES128-GCM-SHA256:ECDHE-RSA-AES256-GCM-SHA384:ECDHE-ECDSA-AES128-SHA256:ECDHE-ECDSA-AES256-SHA384:ECDHE-ECDSA-AES256-SHA:ECDHE-ECDSA-AES128-SHA:AES256-GCM-SHA384:AES128-GCM-SHA256:AES256-SHA256:AES128-SHA256:AES256-SHA:AES128-SHA:!DHE-RSA-AES256-GCM-SHA384:!DHE-RSA-AES128-GCM-SHA256:!DHE-RSA-AES256-SHA:!DHE-RSA-AES128-SHA'].
2024-04-19 03:03:30.38 Server      Query Store settings initialized with enabled = 1, 
2024-04-19 03:03:30.63 Server      The maximum number of dedicated administrator connections for this instance is '1'
2024-04-19 03:03:30.65 Server      Node configuration: node 0: CPU mask: 0x000000000000001f:0 Active CPU mask: 0x000000000000001f:0. This message provides a description of the NUMA configuration for this computer. This is an informational message only. No user action is required.
2024-04-19 03:03:30.76 Server      Using dynamic lock allocation.  Initial allocation of 2500 Lock blocks and 5000 Lock Owner blocks per node.  This is an informational message only.  No user action is required.
2024-04-19 03:03:31.07 Server      In-Memory OLTP initialized on lowend machine.
2024-04-19 03:03:31.80 Server      CLR version v4.0.30319 loaded.
2024-04-19 03:03:32.01 Server      [INFO] Created Extended Events session 'hkenginexesession'
2024-04-19 03:03:32.07 Server      Database Instant File Initialization: enabled. For security and performance considerations see the topic 'Database Instant File Initialization' in SQL Server Books Online. This is an informational message only. No user action is required.
2024-04-19 03:03:32.18 Server      Total Log Writer threads: 2. This is an informational message; no user action is required.
2024-04-19 03:03:32.27 Server      Software Usage Metrics is disabled.
2024-04-19 03:03:32.52 spid22s     [1]. Feature Status: PVS: 0. CTR: 0. ConcurrentPFSUpdate: 1. ConcurrentGAMUpdate: 1. ConcurrentSGAMUpdate: 1, CleanupUnderUserTransaction: 0. TranLevelPVS: 0
2024-04-19 03:03:32.55 spid22s     Starting up database 'master'.
2024-04-19 03:03:35.36 spid22s     Recovery completed for database master (database ID 1) in 2 second(s) (analysis 252 ms, redo 61 ms, undo 346 ms [system undo 0 ms, regular undo 0 ms].) ADR-enabled=0, Is primary=1, OL-Enabled=0. This is an informational message only. No user action is required.
2024-04-19 03:03:36.33 Server      Common language runtime (CLR) functionality initialized.
2024-04-19 03:03:36.67 spid22s     [32762]. Feature Status: PVS: 0. CTR: 0. ConcurrentPFSUpdate: 1. ConcurrentGAMUpdate: 1. ConcurrentSGAMUpdate: 1, CleanupUnderUserTransaction: 0. TranLevelPVS: 0
2024-04-19 03:03:36.71 spid22s     Starting up database 'model_replicatedmaster'.
2024-04-19 03:03:36.78 spid23s     [32767]. Feature Status: PVS: 0. CTR: 0. ConcurrentPFSUpdate: 1. ConcurrentGAMUpdate: 1. ConcurrentSGAMUpdate: 1, CleanupUnderUserTransaction: 0. TranLevelPVS: 0
2024-04-19 03:03:37.01 spid23s     Starting up database 'mssqlsystemresource'.
2024-04-19 03:03:37.06 spid23s     The resource database build version is 16.00.4120. This is an informational message only. No user action is required.
2024-04-19 03:03:37.30 spid23s     [3]. Feature Status: PVS: 0. CTR: 0. ConcurrentPFSUpdate: 1. ConcurrentGAMUpdate: 1. ConcurrentSGAMUpdate: 1, CleanupUnderUserTransaction: 0. TranLevelPVS: 0
2024-04-19 03:03:37.31 spid23s     Starting up database 'model'.
2024-04-19 03:03:39.34 spid22s     The tail of the log for database model_replicatedmaster is being rewritten to match the new sector size of 4096 bytes.  2560 bytes at offset 99840 in file /var/opt/mssql/data/model_replicatedmaster.ldf will be written.
2024-04-19 03:03:39.43 spid30s     A self-generated certificate was successfully loaded for encryption.
2024-04-19 03:03:39.49 spid30s     Server is listening on [ 'any' <ipv6> 1433] accept sockets 1.
2024-04-19 03:03:39.56 spid30s     Server is listening on [ 'any' <ipv4> 1433] accept sockets 1.
2024-04-19 03:03:39.67 Server      Server is listening on [ ::1 <ipv6> 1434] accept sockets 1.
2024-04-19 03:03:39.78 Server      Server is listening on [ 127.0.0.1 <ipv4> 1434] accept sockets 1.
2024-04-19 03:03:39.80 Server      Dedicated admin connection support was established for listening locally on port 1434.
2024-04-19 03:03:40.07 spid30s     Server is listening on [ ::1 <ipv6> 1431] accept sockets 1.
2024-04-19 03:03:40.11 spid30s     Server is listening on [ 127.0.0.1 <ipv4> 1431] accept sockets 1.
2024-04-19 03:03:40.18 spid30s     SQL Server is now ready for client connections. This is an informational message; no user action is required.
2024-04-19 03:03:40.25 spid22s     Converting database 'model_replicatedmaster' from version 927 to the current version 957.
2024-04-19 03:03:40.26 spid22s     Database 'model_replicatedmaster' running the upgrade step from version 927 to version 928.
2024-04-19 03:03:40.45 spid22s     Database 'model_replicatedmaster' running the upgrade step from version 928 to version 929.
2024-04-19 03:03:41.16 spid23s     Recovery completed for database model (database ID 3) in 2 second(s) (analysis 505 ms, redo 0 ms, undo 195 ms [system undo 0 ms, regular undo 0 ms].) ADR-enabled=0, Is primary=1, OL-Enabled=0. This is an informational message only. No user action is required.
2024-04-19 03:03:41.51 spid22s     Database 'model_replicatedmaster' running the upgrade step from version 929 to version 930.
2024-04-19 03:03:41.64 spid22s     Database 'model_replicatedmaster' running the upgrade step from version 930 to version 931.
2024-04-19 03:03:41.69 spid22s     Database 'model_replicatedmaster' running the upgrade step from version 931 to version 932.
2024-04-19 03:03:41.70 spid22s     Database 'model_replicatedmaster' running the upgrade step from version 932 to version 933.
2024-04-19 03:03:41.72 spid22s     Database 'model_replicatedmaster' running the upgrade step from version 933 to version 934.
2024-04-19 03:03:41.73 spid22s     Database 'model_replicatedmaster' running the upgrade step from version 934 to version 935.
2024-04-19 03:03:41.75 spid22s     Database 'model_replicatedmaster' running the upgrade step from version 935 to version 936.
2024-04-19 03:03:41.76 spid22s     Database 'model_replicatedmaster' running the upgrade step from version 936 to version 937.
2024-04-19 03:03:41.77 spid22s     Database 'model_replicatedmaster' running the upgrade step from version 937 to version 938.
2024-04-19 03:03:41.78 spid22s     Database 'model_replicatedmaster' running the upgrade step from version 938 to version 939.
2024-04-19 03:03:41.79 spid22s     Database 'model_replicatedmaster' running the upgrade step from version 939 to version 940.
2024-04-19 03:03:41.79 spid22s     Database 'model_replicatedmaster' running the upgrade step from version 940 to version 941.
2024-04-19 03:03:41.80 spid22s     Database 'model_replicatedmaster' running the upgrade step from version 941 to version 942.
2024-04-19 03:03:41.83 spid22s     Database 'model_replicatedmaster' running the upgrade step from version 942 to version 943.
2024-04-19 03:03:42.30 spid22s     Database 'model_replicatedmaster' running the upgrade step from version 943 to version 944.
2024-04-19 03:03:42.33 spid22s     Database 'model_replicatedmaster' running the upgrade step from version 944 to version 945.
2024-04-19 03:03:42.40 spid22s     Database 'model_replicatedmaster' running the upgrade step from version 945 to version 946.
2024-04-19 03:03:42.43 spid22s     Database 'model_replicatedmaster' running the upgrade step from version 946 to version 947.
2024-04-19 03:03:42.45 spid22s     Database 'model_replicatedmaster' running the upgrade step from version 947 to version 948.
2024-04-19 03:03:42.46 spid22s     Database 'model_replicatedmaster' running the upgrade step from version 948 to version 949.
2024-04-19 03:03:42.51 spid22s     Database 'model_replicatedmaster' running the upgrade step from version 949 to version 950.
2024-04-19 03:03:42.53 spid22s     Database 'model_replicatedmaster' running the upgrade step from version 950 to version 951.
2024-04-19 03:03:42.74 spid22s     Database 'model_replicatedmaster' running the upgrade step from version 951 to version 952.
2024-04-19 03:03:42.77 spid22s     Database 'model_replicatedmaster' running the upgrade step from version 952 to version 953.
2024-04-19 03:03:42.81 spid22s     Database 'model_replicatedmaster' running the upgrade step from version 953 to version 954.
2024-04-19 03:03:42.86 spid22s     Database 'model_replicatedmaster' running the upgrade step from version 954 to version 955.
2024-04-19 03:03:42.87 spid22s     Database 'model_replicatedmaster' running the upgrade step from version 955 to version 956.
2024-04-19 03:03:43.54 spid22s     Database 'model_replicatedmaster' running the upgrade step from version 956 to version 957.
2024-04-19 03:03:44.09 spid22s     [32761]. Feature Status: PVS: 0. CTR: 0. ConcurrentPFSUpdate: 1. ConcurrentGAMUpdate: 1. ConcurrentSGAMUpdate: 1, CleanupUnderUserTransaction: 0. TranLevelPVS: 0
2024-04-19 03:03:44.09 spid22s     Starting up database 'model_msdb'.
2024-04-19 03:03:45.01 Server      External governance manager initialized
2024-04-19 03:03:50.88 spid22s     Recovery completed for database model_msdb (database ID 32761) in 2 second(s) (analysis 572 ms, redo 5 ms, undo 174 ms [system undo 0 ms, regular undo 0 ms].) ADR-enabled=0, Is primary=1, OL-Enabled=0. This is an informational message only. No user action is required.
2024-04-19 03:03:51.10 spid22s     Converting database 'model_msdb' from version 927 to the current version 957.
2024-04-19 03:03:51.11 spid22s     Database 'model_msdb' running the upgrade step from version 927 to version 928.
2024-04-19 03:03:51.19 spid22s     Database 'model_msdb' running the upgrade step from version 928 to version 929.
2024-04-19 03:03:52.59 spid22s     Database 'model_msdb' running the upgrade step from version 929 to version 930.
2024-04-19 03:03:52.72 spid22s     Database 'model_msdb' running the upgrade step from version 930 to version 931.
2024-04-19 03:03:52.74 spid22s     Database 'model_msdb' running the upgrade step from version 931 to version 932.
2024-04-19 03:03:52.76 spid22s     Database 'model_msdb' running the upgrade step from version 932 to version 933.
2024-04-19 03:03:52.93 spid22s     Database 'model_msdb' running the upgrade step from version 933 to version 934.
2024-04-19 03:03:52.94 spid22s     Database 'model_msdb' running the upgrade step from version 934 to version 935.
2024-04-19 03:03:52.95 spid22s     Database 'model_msdb' running the upgrade step from version 935 to version 936.
2024-04-19 03:03:52.96 spid22s     Database 'model_msdb' running the upgrade step from version 936 to version 937.
2024-04-19 03:03:52.97 spid22s     Database 'model_msdb' running the upgrade step from version 937 to version 938.
2024-04-19 03:03:52.98 spid22s     Database 'model_msdb' running the upgrade step from version 938 to version 939.
2024-04-19 03:03:52.99 spid22s     Database 'model_msdb' running the upgrade step from version 939 to version 940.
2024-04-19 03:03:52.99 spid22s     Database 'model_msdb' running the upgrade step from version 940 to version 941.
2024-04-19 03:03:53.01 spid22s     Database 'model_msdb' running the upgrade step from version 941 to version 942.
2024-04-19 03:03:53.03 spid22s     Database 'model_msdb' running the upgrade step from version 942 to version 943.
2024-04-19 03:03:53.16 spid22s     Database 'model_msdb' running the upgrade step from version 943 to version 944.
2024-04-19 03:03:53.18 spid22s     Database 'model_msdb' running the upgrade step from version 944 to version 945.
2024-04-19 03:03:53.29 spid22s     Database 'model_msdb' running the upgrade step from version 945 to version 946.
2024-04-19 03:03:53.32 spid22s     Database 'model_msdb' running the upgrade step from version 946 to version 947.
2024-04-19 03:03:53.34 spid22s     Database 'model_msdb' running the upgrade step from version 947 to version 948.
2024-04-19 03:03:53.35 spid22s     Database 'model_msdb' running the upgrade step from version 948 to version 949.
2024-04-19 03:03:53.40 spid22s     Database 'model_msdb' running the upgrade step from version 949 to version 950.
2024-04-19 03:03:53.42 spid22s     Database 'model_msdb' running the upgrade step from version 950 to version 951.
2024-04-19 03:03:53.53 spid22s     Database 'model_msdb' running the upgrade step from version 951 to version 952.
2024-04-19 03:03:53.54 spid22s     Database 'model_msdb' running the upgrade step from version 952 to version 953.
2024-04-19 03:03:53.56 spid22s     Database 'model_msdb' running the upgrade step from version 953 to version 954.
2024-04-19 03:03:53.58 spid22s     Database 'model_msdb' running the upgrade step from version 954 to version 955.
2024-04-19 03:03:53.59 spid22s     Database 'model_msdb' running the upgrade step from version 955 to version 956.
2024-04-19 03:03:53.99 spid22s     Database 'model_msdb' running the upgrade step from version 956 to version 957.
2024-04-19 03:03:54.67 spid22s     Resource governor reconfiguration succeeded.
2024-04-19 03:03:54.72 spid33s     Attribute synchronization initialized
2024-04-19 03:03:54.73 spid22s     SQL Server Audit is starting the audits. This is an informational message. No user action is required.
2024-04-19 03:03:54.75 spid33s     Attribute synchronization manager initialized
2024-04-19 03:03:54.85 spid22s     SQL Server Audit has started the audits. This is an informational message. No user action is required.
2024-04-19 03:03:55.04 spid22s     XE session 'system_health' started.
2024-04-19 03:03:57.64 spid22s     XE session 'telemetry_xevents' started.
2024-04-19 03:03:58.64 spid22s     SQL Trace ID 1 was started by login "sa".
2024-04-19 03:03:59.08 spid22s     Server name is 'c59b69635422'. This is an informational message only. No user action is required.
2024-04-19 03:03:59.85 spid68s     Always On: The availability replica manager is starting. This is an informational message only. No user action is required.
2024-04-19 03:03:59.88 spid23s     Clearing tempdb database.
2024-04-19 03:04:00.02 spid73s     [5]. Feature Status: PVS: 0. CTR: 0. ConcurrentPFSUpdate: 1. ConcurrentGAMUpdate: 1. ConcurrentSGAMUpdate: 1, CleanupUnderUserTransaction: 0. TranLevelPVS: 0
2024-04-19 03:04:00.02 spid71s     [4]. Feature Status: PVS: 0. CTR: 0. ConcurrentPFSUpdate: 1. ConcurrentGAMUpdate: 1. ConcurrentSGAMUpdate: 1, CleanupUnderUserTransaction: 0. TranLevelPVS: 0
2024-04-19 03:04:00.09 spid68s     Always On: The availability replica manager is waiting for the instance of SQL Server to allow client connections. This is an informational message only. No user action is required.
2024-04-19 03:04:00.17 spid73s     Starting up database 'IdentityDatabase'.
2024-04-19 03:04:00.21 spid71s     Starting up database 'msdb'.
2024-04-19 03:04:00.27 spid73s     RemoveStaleDbEntries: Cleanup of stale DB entries called for database ID: [5]
2024-04-19 03:04:00.32 spid73s     RemoveStaleDbEntries: Cleanup of stale DB entries skipped because master db is not memory optimized. DbId: 5.
2024-04-19 03:04:02.76 spid20s     Using 'dbghelp.dll' version '4.0.5'
2024-04-19 03:04:03.97 spid73s     Parallel redo is started for database 'IdentityDatabase' with worker pool size [2].
2024-04-19 03:04:05.37 spid22s     Recovery completed for database IdentityDatabase (database ID 5) in 2 second(s) (analysis 411 ms, redo 0 ms, undo 450 ms [system undo 0 ms, regular undo 0 ms].) ADR-enabled=0, Is primary=1, OL-Enabled=0. This is an informational message only. No user action is required.
2024-04-19 03:04:05.73 spid22s     Parallel redo is shutdown for database 'IdentityDatabase' with worker pool size [2].
2024-04-19 03:04:05.95 spid22s     Recovery completed for database msdb (database ID 4) in 3 second(s) (analysis 469 ms, redo 5 ms, undo 1078 ms [system undo 0 ms, regular undo 0 ms].) ADR-enabled=0, Is primary=1, OL-Enabled=0. This is an informational message only. No user action is required.
2024-04-19 03:04:14.15 spid23s     [2]. Feature Status: PVS: 0. CTR: 0. ConcurrentPFSUpdate: 1. ConcurrentGAMUpdate: 1. ConcurrentSGAMUpdate: 1, CleanupUnderUserTransaction: 0. TranLevelPVS: 0
2024-04-19 03:04:14.16 spid23s     Starting up database 'tempdb'.
2024-04-19 03:04:16.26 spid23s     Recovery completed for database tempdb (database ID 2) in 2 second(s) (analysis 769 ms, redo 4 ms, undo 532 ms [system undo 0 ms, regular undo 0 ms].) ADR-enabled=0, Is primary=1, OL-Enabled=0. This is an informational message only. No user action is required.
2024-04-19 03:04:17.94 Server      Long Sync IO: Scheduler 0 had 1 Sync IOs in nonpreemptive mode longer than 1000 ms
2024-04-19 03:04:20.06 spid23s     The tempdb database has 5 data file(s).
2024-04-19 03:04:20.10 spid68s     The Service Broker endpoint is in disabled or stopped state.
2024-04-19 03:04:20.11 spid68s     The Database Mirroring endpoint is in disabled or stopped state.
2024-04-19 03:04:20.19 spid68s     Service Broker manager has started.
2024-04-19 03:04:20.22 spid22s     Recovery is complete. This is an informational message only. No user action is required.
2024-04-19 03:07:59.11 spid51      XE session 'telemetry_xevents' stopping.
2024-04-19 03:07:59.21 spid51      XE session 'telemetry_xevents' started.
2024-04-19 03:09:25.76 spid51      Attempting to load library 'xplog70.dll' into memory. This is an informational message only. No user action is required.
2024-04-19 03:09:25.95 spid51      Using 'xplog70.dll' version '2022.160.4120' to execute extended stored procedure 'xp_msver'. This is an informational message only; no user action is required.
2024-04-19 03:13:27.18 spid22s     Always On: The availability replica manager is going offline because SQL Server is shutting down. This is an informational message only. No user action is required.
2024-04-19 03:13:27.23 spid22s     SQL Server is terminating in response to a 'stop' request from Service Control Manager. This is an informational message only. No user action is required.
2024-04-19 03:13:27.35 spid22s     .NET Framework runtime has been stopped.
2024-04-19 03:13:27.75 Logon       Error: 18456, Severity: 14, State: 23.
2024-04-19 03:13:27.75 Logon       Login failed for user 'NT AUTHORITY\SYSTEM'. Reason: Access to server validation failed while revalidating the login on the connection. [CLIENT: 127.0.0.1]
2024-04-19 03:13:27.76 spid51      Error: 18056, Severity: 20, State: 23.
2024-04-19 03:13:27.76 spid51      The client was unable to reuse a session with SPID 51, which had been reset for connection pooling. The failure ID is 23. This error may have been caused by an earlier operation failing. Check the error logs for failed operations immediately before this error message.
2024-04-19 03:13:27.81 spid68s     Service Broker manager has shut down.
2024-04-19 03:13:28.28 spid22s     SQL Trace was stopped due to server shutdown. Trace ID = '1'. This is an informational message only; no user action is required.
